﻿
DisplayName "Gold Volcano"



EVENT   1
 PAGE   1
  0()



EVENT   2
 PAGE   1
  0()



EVENT   3
 PAGE   1
  0()



EVENT   4
 PAGE   1
  0()



EVENT   5
 PAGE   1
  0()



EVENT   6
 PAGE   1
  0()



EVENT   7
 PAGE   1
  0()



EVENT   8
 PAGE   1
  0()



EVENT   9
 PAGE   1
  0()



EVENT   10
 PAGE   1
  0()



EVENT   11
 PAGE   1
  0()



EVENT   12
 PAGE   1
  ChangeSwitch(100,100,1)
  250(bytes(0x04,0x08,0x6f,0x3a,0x0c,0x52,0x50,0x47,0x3a,0x3a,0x53,0x45,0x08,0x3a,0x0a,0x40,0x6e,0x61,0x6d,0x65,0x49,0x22,0x09,0x4d,0x6f,0x76,0x65,0x06,0x3a,0x06,0x45,0x54,0x3a,0x0b,0x40,0x70,0x69,0x74,0x63,0x68,0x69,0x69,0x3a,0x0c,0x40,0x76,0x6f,0x6c,0x75,0x6d,0x65,0x69,0x55))
  TeleportPlayer(0,2,193,158,6,0)
  0()



EVENT   13
 PAGE   1
  250(bytes(0x04,0x08,0x6f,0x3a,0x0c,0x52,0x50,0x47,0x3a,0x3a,0x53,0x45,0x08,0x3a,0x0a,0x40,0x6e,0x61,0x6d,0x65,0x49,0x22,0x0a,0x43,0x68,0x65,0x73,0x74,0x06,0x3a,0x06,0x45,0x54,0x3a,0x0b,0x40,0x70,0x69,0x74,0x63,0x68,0x69,0x69,0x3a,0x0c,0x40,0x76,0x6f,0x6c,0x75,0x6d,0x65,0x69,0x55))
  205(0,bytes(0x04,0x08,0x6f,0x3a,0x13,0x52,0x50,0x47,0x3a,0x3a,0x4d,0x6f,0x76,0x65,0x52,0x6f,0x75,0x74,0x65,0x09,0x3a,0x0c,0x40,0x72,0x65,0x70,0x65,0x61,0x74,0x46,0x3a,0x0f,0x40,0x73,0x6b,0x69,0x70,0x70,0x61,0x62,0x6c,0x65,0x46,0x3a,0x0a,0x40,0x77,0x61,0x69,0x74,0x54,0x3a,0x0a,0x40,0x6c,0x69,0x73,0x74,0x5b,0x0b,0x6f,0x3a,0x15,0x52,0x50,0x47,0x3a,0x3a,0x4d,0x6f,0x76,0x65,0x43,0x6f,0x6d,0x6d,0x61,0x6e,0x64,0x07,0x3a,0x0a,0x40,0x63,0x6f,0x64,0x65,0x69,0x29,0x3a,0x10,0x40,0x70,0x61,0x72,0x61,0x6d,0x65,0x74,0x65,0x72,0x73,0x5b,0x00,0x6f,0x3b,0x0a,0x07,0x3b,0x0b,0x69,0x16,0x3b,0x0c,0x5b,0x00,0x6f,0x3b,0x0a,0x07,0x3b,0x0b,0x69,0x14,0x3b,0x0c,0x5b,0x06,0x69,0x08,0x6f,0x3b,0x0a,0x07,0x3b,0x0b,0x69,0x17,0x3b,0x0c,0x5b,0x00,0x6f,0x3b,0x0a,0x07,0x3b,0x0b,0x69,0x14,0x3b,0x0c,0x5b,0x06,0x69,0x08,0x6f,0x3b,0x0a,0x07,0x3b,0x0b,0x69,0x00,0x3b,0x0c,0x5b,0x00))
  ChangeSelfSwitch("A",0)
  ChangeInventory_Item(52,0,0,1)
  0()
 PAGE   2
  // condition: self-switch A is ON
  0()



EVENT   14
 PAGE   1
  250(bytes(0x04,0x08,0x6f,0x3a,0x0c,0x52,0x50,0x47,0x3a,0x3a,0x53,0x45,0x08,0x3a,0x0a,0x40,0x6e,0x61,0x6d,0x65,0x49,0x22,0x0a,0x43,0x68,0x65,0x73,0x74,0x06,0x3a,0x06,0x45,0x54,0x3a,0x0b,0x40,0x70,0x69,0x74,0x63,0x68,0x69,0x69,0x3a,0x0c,0x40,0x76,0x6f,0x6c,0x75,0x6d,0x65,0x69,0x55))
  205(0,bytes(0x04,0x08,0x6f,0x3a,0x13,0x52,0x50,0x47,0x3a,0x3a,0x4d,0x6f,0x76,0x65,0x52,0x6f,0x75,0x74,0x65,0x09,0x3a,0x0c,0x40,0x72,0x65,0x70,0x65,0x61,0x74,0x46,0x3a,0x0f,0x40,0x73,0x6b,0x69,0x70,0x70,0x61,0x62,0x6c,0x65,0x46,0x3a,0x0a,0x40,0x77,0x61,0x69,0x74,0x54,0x3a,0x0a,0x40,0x6c,0x69,0x73,0x74,0x5b,0x0b,0x6f,0x3a,0x15,0x52,0x50,0x47,0x3a,0x3a,0x4d,0x6f,0x76,0x65,0x43,0x6f,0x6d,0x6d,0x61,0x6e,0x64,0x07,0x3a,0x0a,0x40,0x63,0x6f,0x64,0x65,0x69,0x29,0x3a,0x10,0x40,0x70,0x61,0x72,0x61,0x6d,0x65,0x74,0x65,0x72,0x73,0x5b,0x00,0x6f,0x3b,0x0a,0x07,0x3b,0x0b,0x69,0x16,0x3b,0x0c,0x5b,0x00,0x6f,0x3b,0x0a,0x07,0x3b,0x0b,0x69,0x14,0x3b,0x0c,0x5b,0x06,0x69,0x08,0x6f,0x3b,0x0a,0x07,0x3b,0x0b,0x69,0x17,0x3b,0x0c,0x5b,0x00,0x6f,0x3b,0x0a,0x07,0x3b,0x0b,0x69,0x14,0x3b,0x0c,0x5b,0x06,0x69,0x08,0x6f,0x3b,0x0a,0x07,0x3b,0x0b,0x69,0x00,0x3b,0x0c,0x5b,0x00))
  ChangeSelfSwitch("A",0)
  ChangeInventory_Item(32,0,0,1)
  0()
 PAGE   2
  // condition: self-switch A is ON
  0()



EVENT   15
 PAGE   1
  250(bytes(0x04,0x08,0x6f,0x3a,0x0c,0x52,0x50,0x47,0x3a,0x3a,0x53,0x45,0x08,0x3a,0x0a,0x40,0x6e,0x61,0x6d,0x65,0x49,0x22,0x0a,0x43,0x68,0x65,0x73,0x74,0x06,0x3a,0x06,0x45,0x54,0x3a,0x0b,0x40,0x70,0x69,0x74,0x63,0x68,0x69,0x69,0x3a,0x0c,0x40,0x76,0x6f,0x6c,0x75,0x6d,0x65,0x69,0x55))
  205(0,bytes(0x04,0x08,0x6f,0x3a,0x13,0x52,0x50,0x47,0x3a,0x3a,0x4d,0x6f,0x76,0x65,0x52,0x6f,0x75,0x74,0x65,0x09,0x3a,0x0c,0x40,0x72,0x65,0x70,0x65,0x61,0x74,0x46,0x3a,0x0f,0x40,0x73,0x6b,0x69,0x70,0x70,0x61,0x62,0x6c,0x65,0x46,0x3a,0x0a,0x40,0x77,0x61,0x69,0x74,0x54,0x3a,0x0a,0x40,0x6c,0x69,0x73,0x74,0x5b,0x0b,0x6f,0x3a,0x15,0x52,0x50,0x47,0x3a,0x3a,0x4d,0x6f,0x76,0x65,0x43,0x6f,0x6d,0x6d,0x61,0x6e,0x64,0x07,0x3a,0x0a,0x40,0x63,0x6f,0x64,0x65,0x69,0x29,0x3a,0x10,0x40,0x70,0x61,0x72,0x61,0x6d,0x65,0x74,0x65,0x72,0x73,0x5b,0x00,0x6f,0x3b,0x0a,0x07,0x3b,0x0b,0x69,0x16,0x3b,0x0c,0x5b,0x00,0x6f,0x3b,0x0a,0x07,0x3b,0x0b,0x69,0x14,0x3b,0x0c,0x5b,0x06,0x69,0x08,0x6f,0x3b,0x0a,0x07,0x3b,0x0b,0x69,0x17,0x3b,0x0c,0x5b,0x00,0x6f,0x3b,0x0a,0x07,0x3b,0x0b,0x69,0x14,0x3b,0x0c,0x5b,0x06,0x69,0x08,0x6f,0x3b,0x0a,0x07,0x3b,0x0b,0x69,0x00,0x3b,0x0c,0x5b,0x00))
  ChangeSelfSwitch("A",0)
  ChangeInventory_Item(52,0,0,1)
  0()
 PAGE   2
  // condition: self-switch A is ON
  0()



EVENT   16
 PAGE   1
  250(bytes(0x04,0x08,0x6f,0x3a,0x0c,0x52,0x50,0x47,0x3a,0x3a,0x53,0x45,0x08,0x3a,0x0a,0x40,0x6e,0x61,0x6d,0x65,0x49,0x22,0x0a,0x43,0x68,0x65,0x73,0x74,0x06,0x3a,0x06,0x45,0x54,0x3a,0x0b,0x40,0x70,0x69,0x74,0x63,0x68,0x69,0x69,0x3a,0x0c,0x40,0x76,0x6f,0x6c,0x75,0x6d,0x65,0x69,0x55))
  205(0,bytes(0x04,0x08,0x6f,0x3a,0x13,0x52,0x50,0x47,0x3a,0x3a,0x4d,0x6f,0x76,0x65,0x52,0x6f,0x75,0x74,0x65,0x09,0x3a,0x0c,0x40,0x72,0x65,0x70,0x65,0x61,0x74,0x46,0x3a,0x0f,0x40,0x73,0x6b,0x69,0x70,0x70,0x61,0x62,0x6c,0x65,0x46,0x3a,0x0a,0x40,0x77,0x61,0x69,0x74,0x54,0x3a,0x0a,0x40,0x6c,0x69,0x73,0x74,0x5b,0x0b,0x6f,0x3a,0x15,0x52,0x50,0x47,0x3a,0x3a,0x4d,0x6f,0x76,0x65,0x43,0x6f,0x6d,0x6d,0x61,0x6e,0x64,0x07,0x3a,0x0a,0x40,0x63,0x6f,0x64,0x65,0x69,0x29,0x3a,0x10,0x40,0x70,0x61,0x72,0x61,0x6d,0x65,0x74,0x65,0x72,0x73,0x5b,0x00,0x6f,0x3b,0x0a,0x07,0x3b,0x0b,0x69,0x16,0x3b,0x0c,0x5b,0x00,0x6f,0x3b,0x0a,0x07,0x3b,0x0b,0x69,0x14,0x3b,0x0c,0x5b,0x06,0x69,0x08,0x6f,0x3b,0x0a,0x07,0x3b,0x0b,0x69,0x17,0x3b,0x0c,0x5b,0x00,0x6f,0x3b,0x0a,0x07,0x3b,0x0b,0x69,0x14,0x3b,0x0c,0x5b,0x06,0x69,0x08,0x6f,0x3b,0x0a,0x07,0x3b,0x0b,0x69,0x00,0x3b,0x0c,0x5b,0x00))
  ChangeSelfSwitch("A",0)
  ChangeInventoryArmor(313,0,0,1,false)
  0()
 PAGE   2
  // condition: self-switch A is ON
  0()



EVENT   17
 PAGE   1
  If(12,"unlock_level < 1")
   ShowMessageFace("",0,0,2,1)
   ShowMessage("The chest is locked.")
   EndEventProcessing()
   0()
  EndIf()
  250(bytes(0x04,0x08,0x6f,0x3a,0x0c,0x52,0x50,0x47,0x3a,0x3a,0x53,0x45,0x08,0x3a,0x0a,0x40,0x6e,0x61,0x6d,0x65,0x49,0x22,0x0a,0x43,0x68,0x65,0x73,0x74,0x06,0x3a,0x06,0x45,0x54,0x3a,0x0b,0x40,0x70,0x69,0x74,0x63,0x68,0x69,0x69,0x3a,0x0c,0x40,0x76,0x6f,0x6c,0x75,0x6d,0x65,0x69,0x55))
  205(0,bytes(0x04,0x08,0x6f,0x3a,0x13,0x52,0x50,0x47,0x3a,0x3a,0x4d,0x6f,0x76,0x65,0x52,0x6f,0x75,0x74,0x65,0x09,0x3a,0x0c,0x40,0x72,0x65,0x70,0x65,0x61,0x74,0x46,0x3a,0x0f,0x40,0x73,0x6b,0x69,0x70,0x70,0x61,0x62,0x6c,0x65,0x46,0x3a,0x0a,0x40,0x77,0x61,0x69,0x74,0x54,0x3a,0x0a,0x40,0x6c,0x69,0x73,0x74,0x5b,0x0b,0x6f,0x3a,0x15,0x52,0x50,0x47,0x3a,0x3a,0x4d,0x6f,0x76,0x65,0x43,0x6f,0x6d,0x6d,0x61,0x6e,0x64,0x07,0x3a,0x0a,0x40,0x63,0x6f,0x64,0x65,0x69,0x29,0x3a,0x10,0x40,0x70,0x61,0x72,0x61,0x6d,0x65,0x74,0x65,0x72,0x73,0x5b,0x00,0x6f,0x3b,0x0a,0x07,0x3b,0x0b,0x69,0x16,0x3b,0x0c,0x5b,0x00,0x6f,0x3b,0x0a,0x07,0x3b,0x0b,0x69,0x14,0x3b,0x0c,0x5b,0x06,0x69,0x08,0x6f,0x3b,0x0a,0x07,0x3b,0x0b,0x69,0x17,0x3b,0x0c,0x5b,0x00,0x6f,0x3b,0x0a,0x07,0x3b,0x0b,0x69,0x14,0x3b,0x0c,0x5b,0x06,0x69,0x08,0x6f,0x3b,0x0a,0x07,0x3b,0x0b,0x69,0x00,0x3b,0x0c,0x5b,0x00))
  ChangeSelfSwitch("A",0)
  ChangeInventoryWeapon(249,0,0,1)
  0()
 PAGE   2
  // condition: self-switch A is ON
  0()



EVENT   18
 PAGE   1
  If(12,"unlock_level < 1")
   ShowMessageFace("",0,0,2,1)
   ShowMessage("The chest is locked.")
   EndEventProcessing()
   0()
  EndIf()
  250(bytes(0x04,0x08,0x6f,0x3a,0x0c,0x52,0x50,0x47,0x3a,0x3a,0x53,0x45,0x08,0x3a,0x0a,0x40,0x6e,0x61,0x6d,0x65,0x49,0x22,0x0a,0x43,0x68,0x65,0x73,0x74,0x06,0x3a,0x06,0x45,0x54,0x3a,0x0b,0x40,0x70,0x69,0x74,0x63,0x68,0x69,0x69,0x3a,0x0c,0x40,0x76,0x6f,0x6c,0x75,0x6d,0x65,0x69,0x55))
  205(0,bytes(0x04,0x08,0x6f,0x3a,0x13,0x52,0x50,0x47,0x3a,0x3a,0x4d,0x6f,0x76,0x65,0x52,0x6f,0x75,0x74,0x65,0x09,0x3a,0x0c,0x40,0x72,0x65,0x70,0x65,0x61,0x74,0x46,0x3a,0x0f,0x40,0x73,0x6b,0x69,0x70,0x70,0x61,0x62,0x6c,0x65,0x46,0x3a,0x0a,0x40,0x77,0x61,0x69,0x74,0x54,0x3a,0x0a,0x40,0x6c,0x69,0x73,0x74,0x5b,0x0b,0x6f,0x3a,0x15,0x52,0x50,0x47,0x3a,0x3a,0x4d,0x6f,0x76,0x65,0x43,0x6f,0x6d,0x6d,0x61,0x6e,0x64,0x07,0x3a,0x0a,0x40,0x63,0x6f,0x64,0x65,0x69,0x29,0x3a,0x10,0x40,0x70,0x61,0x72,0x61,0x6d,0x65,0x74,0x65,0x72,0x73,0x5b,0x00,0x6f,0x3b,0x0a,0x07,0x3b,0x0b,0x69,0x16,0x3b,0x0c,0x5b,0x00,0x6f,0x3b,0x0a,0x07,0x3b,0x0b,0x69,0x14,0x3b,0x0c,0x5b,0x06,0x69,0x08,0x6f,0x3b,0x0a,0x07,0x3b,0x0b,0x69,0x17,0x3b,0x0c,0x5b,0x00,0x6f,0x3b,0x0a,0x07,0x3b,0x0b,0x69,0x14,0x3b,0x0c,0x5b,0x06,0x69,0x08,0x6f,0x3b,0x0a,0x07,0x3b,0x0b,0x69,0x00,0x3b,0x0c,0x5b,0x00))
  ChangeSelfSwitch("A",0)
  ChangeInventoryArmor(1494,0,0,1)
  0()
 PAGE   2
  // condition: self-switch A is ON
  0()



EVENT   19
 PAGE   1
  250(bytes(0x04,0x08,0x6f,0x3a,0x0c,0x52,0x50,0x47,0x3a,0x3a,0x53,0x45,0x08,0x3a,0x0a,0x40,0x6e,0x61,0x6d,0x65,0x49,0x22,0x0a,0x43,0x68,0x65,0x73,0x74,0x06,0x3a,0x06,0x45,0x54,0x3a,0x0b,0x40,0x70,0x69,0x74,0x63,0x68,0x69,0x69,0x3a,0x0c,0x40,0x76,0x6f,0x6c,0x75,0x6d,0x65,0x69,0x55))
  205(0,bytes(0x04,0x08,0x6f,0x3a,0x13,0x52,0x50,0x47,0x3a,0x3a,0x4d,0x6f,0x76,0x65,0x52,0x6f,0x75,0x74,0x65,0x09,0x3a,0x0c,0x40,0x72,0x65,0x70,0x65,0x61,0x74,0x46,0x3a,0x0f,0x40,0x73,0x6b,0x69,0x70,0x70,0x61,0x62,0x6c,0x65,0x46,0x3a,0x0a,0x40,0x77,0x61,0x69,0x74,0x54,0x3a,0x0a,0x40,0x6c,0x69,0x73,0x74,0x5b,0x0b,0x6f,0x3a,0x15,0x52,0x50,0x47,0x3a,0x3a,0x4d,0x6f,0x76,0x65,0x43,0x6f,0x6d,0x6d,0x61,0x6e,0x64,0x07,0x3a,0x0a,0x40,0x63,0x6f,0x64,0x65,0x69,0x29,0x3a,0x10,0x40,0x70,0x61,0x72,0x61,0x6d,0x65,0x74,0x65,0x72,0x73,0x5b,0x00,0x6f,0x3b,0x0a,0x07,0x3b,0x0b,0x69,0x16,0x3b,0x0c,0x5b,0x00,0x6f,0x3b,0x0a,0x07,0x3b,0x0b,0x69,0x14,0x3b,0x0c,0x5b,0x06,0x69,0x08,0x6f,0x3b,0x0a,0x07,0x3b,0x0b,0x69,0x17,0x3b,0x0c,0x5b,0x00,0x6f,0x3b,0x0a,0x07,0x3b,0x0b,0x69,0x14,0x3b,0x0c,0x5b,0x06,0x69,0x08,0x6f,0x3b,0x0a,0x07,0x3b,0x0b,0x69,0x00,0x3b,0x0c,0x5b,0x00))
  ChangeSelfSwitch("A",0)
  ChangeInventory_Item(223,0,0,1)
  0()
 PAGE   2
  // condition: self-switch A is ON
  0()



EVENT   20
 PAGE   1
  If(0,4,0)
   ShowMessageFace("alice_fc5",0,0,2,1)
   ShowMessage("\\n<Alice>So this is the volcano where Salamander lives...")
   0()
  EndIf()
  If(0,5,0)
   ShowMessageFace("iriasu_fc4",2,0,2,2)
   ShowMessage("\\n<Ilias>Do we seriously have to go in here to meet with Salamander?")
   0()
  EndIf()
  If(4,53,0)
   ShowMessageFace("slime_fc1",2,0,2,3)
   ShowMessage("\\n<Lime>It's so hot!")
   0()
  EndIf()
  If(4,14,0)
   ShowMessageFace("undine_fc1",2,0,2,4)
   ShowMessage("\\n<Undine>It's too hot. I'm getting dizzy...")
   0()
  EndIf()
  If(4,171,0)
   ShowMessageFace("lizardboss_fc1",0,0,2,5)
   ShowMessage("\\n<Miranda>It's pleasantly warm for me.")
   0()
  EndIf()
  If(4,72,0)
   ShowMessageFace("phoenix_fc1",1,0,2,6)
   ShowMessage("\\n<Mini>I feel so fired up!")
   0()
  EndIf()
  If(0,6,0)
   ShowMessageFace("sonia_fc2",2,0,2,7)
   ShowMessage("\\n<Sonya>It's ridiculously hot, and this magma is a hazard, too. We better be prepared for damage floors, or this won't go well.")
   ShowMessageFace("ruka_fc1",0,0,2,8)
   ShowMessage("\\n<Luka>On top of that, I bet the monsters in here are very strong.")
   0()
  Else()
   ShowMessageFace("ruka_fc1",0,0,2,9)
   ShowMessage("\\n<Luka>The inside is full of magma, and the monsters seem strong too.")
   0()
  EndIf()
  If(1,1067,0,7,1)
   If(1,1068,0,3,1)
    If(1,1065,0,3,1)
     If(1,1078,0,5,1)
      If(0,4,0)
       ShowMessageFace("alice_fc5",0,0,2,10)
       ShowMessage("\\n<Alice>We've completed everything there is to do in this region. We should be experienced enough to tackle this challenge now.")
       ShowMessageFace("alice_fc5",2,0,2,11)
       ShowMessage("\\n<Alice>All right, let's go bind with Salamander! Then you'll have the power of the Four Spirits!")
       0()
      EndIf()
      If(0,5,0)
       ShowMessageFace("iriasu_fc4",0,0,2,12)
       ShowMessage("\\n<Ilias>We've finished everything there is to do in this region. We ought to be experienced enough to tackle this challenge now.")
       ShowMessageFace("iriasu_fc4",0,0,2,13)
       ShowMessage("\\n<Ilias>I hate the spirits, but I won't complain now that we've come this far. After you've bound Salamander, our enslavement of the Four Spirits will be complete!")
       0()
      EndIf()
      If(0,2277,1)
       If(0,4,0)
        ShowMessageFace("alice_fc5",6,0,2,14)
        ShowMessage("\\n<Alice>...Oh by the way, we haven't gotten our reward from the King of Grangold. We finished his requests but still need to go back and tell him.")
        ShowMessageFace("alice_fc5",6,0,2,15)
        ShowMessage("\\n<Alice>Considering how much effort we put into fixing his kingdom, we can't forget about the reward! Let's go get it right now!")
        0()
       EndIf()
       If(0,5,0)
        ShowMessageFace("iriasu_fc4",5,0,2,16)
        ShowMessage("\\n<Ilias>..Oh by the way, we have yet to receive our reward from the King of Grangold. We finished his requests but still need to go back and tell him.")
        ShowMessageFace("iriasu_fc4",5,0,2,17)
        ShowMessage("\\n<Ilias>Considering how much effort we put into fixing his kingdom, we can't forget about the reward! Let's go grab it right now!")
        0()
       EndIf()
       0()
      EndIf()
      ChangeSelfSwitch("A",0)
      EndEventProcessing()
      0()
     EndIf()
     0()
    EndIf()
    0()
   EndIf()
   0()
  EndIf()
  If(0,4,0)
   ShowMessageFace("alice_fc5",0,0,2,18)
   ShowMessage("\\n<Alice>We still have things to do in this region, don't we? Shouldn't we save this place for last since it's going to be a challenge?")
   ShowMessageFace("alice_fc5",0,0,2,19)
   ShowMessage("\\n<Alice>The decision is up to you, though.\nIf you just want to blast through this adventure, I'll accept that.")
   0()
  EndIf()
  If(0,5,0)
   ShowMessageFace("iriasu_fc4",2,0,2,20)
   ShowMessage("\\n<Ilias>We still have things to do in this region, do we not? Shouldn't we save this place for last since it's going to be a challenge?")
   ShowMessageFace("iriasu_fc4",2,0,2,21)
   ShowMessage("\\n<Ilias>That said, I trust you to make the right decision. If you're trying to speedrun your adventure, let's go ahead.")
   0()
  EndIf()
  TemporaryRemoveEvent()
  EndEventProcessing()
  0()
 PAGE   2
  // condition: self-switch A is ON
  0()
 PAGE   3
  // condition: variable 1001 >= 28
  0()



EVENT   21
 PAGE   1
  PictureDisplay(5,"80_salamander_st01",0,0,0,0,100,100,0,0)
  PictureMove(5,null,0,0,0,0,100,100,255,0,60,true)
  ShowMessageFace("salamander_fc1",0,0,2,1)
  ShowMessage("\\n<Salamander>You're finally here, Hero Luka...\nYou're as hot as I thought you'd be.")
  ShowMessageFace("sylph_fc1",0,0,2,2)
  ShowMessage("\\n<Sylph>Yay, Salamanderrrrrr! ♪")
  ShowMessageFace("gnome_fc1",0,0,2,3)
  ShowMessage("\\n<Gnome>.........")
  ShowMessageFace("salamander_fc1",0,0,2,4)
  ShowMessage("\\n<Salamander>Sylph, Gnome, you two look as healthy as ever.\nSo once you form a contract with me, you'll possess the strength of all four spirits.")
  ShowMessageFace("ruka_fc1",0,0,2,5)
  ShowMessage("\\n<Luka>It appears you knew I was coming and why, as well...")
  ShowMessageFace("salamander_fc1",0,0,2,6)
  ShowMessage("\\n<Salamander>Indeed... You carry the fate of the world on your shoulders.")
  ShowMessageFace("undine_fc1",2,0,2,7)
  ShowMessage("\\n<Undine>Oh, stop blowing smoke up his ass.\nYou hardly have any idea what's going on.")
  241(bytes(0x04,0x08,0x6f,0x3a,0x0d,0x52,0x50,0x47,0x3a,0x3a,0x42,0x47,0x4d,0x08,0x3a,0x0a,0x40,0x6e,0x61,0x6d,0x65,0x49,0x22,0x10,0x73,0x63,0x65,0x6e,0x65,0x5f,0x63,0x6f,0x6d,0x69,0x32,0x06,0x3a,0x06,0x45,0x54,0x3a,0x0c,0x40,0x76,0x6f,0x6c,0x75,0x6d,0x65,0x69,0x69,0x3a,0x0b,0x40,0x70,0x69,0x74,0x63,0x68,0x69,0x69))
  PictureDisplay(5,"80_salamander_st03",0,0,0,0,100,100,255,0)
  ShowMessageFace("salamander_fc1",2,0,2,8)
  ShowMessage("\\n<Salamander>What was that!? You're the one who's clueless!\nHave you forgotten Heinrich going to Mount Horai 500 years ago?")
  ShowMessageFace("undine_fc1",0,0,2,9)
  ShowMessage("\\n<Undine>If YOU hadn't let him through Hellgondo Cave--")
  ShowMessageFace("salamander_fc1",2,0,2,10)
  ShowMessage("\\n<Salamander>Are you serious!? I can't believe the nerve of this slime--")
  ShowMessageFace("undine_fc1",0,0,2,11)
  ShowMessage("\\n<Undine>You're all talk, lizard--")
  ShowMessageFace("sylph_fc1",1,0,2,12)
  ShowMessage("\\n<Sylph>Oh brother, here we go...")
  ShowMessageFace("gnome_fc1",0,0,2,13)
  ShowMessage("\\n<Gnome>.........")
  ShowMessageFace("salamander_fc1",2,0,2,14)
  ShowMessage("\\n<Salamander>That's it, we're settling this right here!\nHope you're ready!!")
  ShowMessageFace("undine_fc1",0,0,2,15)
  ShowMessage("\\n<Undine>That's exactly why we came.\nLuka, you're up.")
  ShowMessageFace("ruka_fc1",0,0,2,16)
  ShowMessage("\\n<Luka>Huh... Me!?")
  ShowMessageFace("salamander_fc1",2,0,2,17)
  ShowMessage("\\n<Salamander>If you get in my way, I'll beat up both you and that water slime!")
  ShowMessageFace("undine_fc1",0,0,2,18)
  ShowMessage("\\n<Undine>We need to cool this savage, vulgar lizard off...")
  ShowMessageFace("sylph_fc1",2,0,2,19)
  ShowMessage("\\n<Sylph>But you've just been firing her up!")
  ShowMessageFace("gnome_fc1",0,0,2,20)
  ShowMessage("\\n<Gnome>.........")
  If(4,15,0)
   ShowMessageFace("salamander_fc1",2,0,2,21)
   ShowMessage("\\n<Salamander'>You need to chill out, I swear...")
   ShowMessageFace("salamander_fc1",2,0,2,22)
   ShowMessage("\\n<Salamander>What the!? Another ruler of the flames?\nI've got to defeat you too!")
   0()
  EndIf()
  ShowMessageFace("salamander_fc1",2,0,2,23)
  ShowMessage("\\n<Salamander>Here I comeeeeee!!")
  ShowMessageFace("undine_fc1",0,0,2,24)
  ShowMessage("\\n<Undine>Bring it!")
  ShowMessageFace("ruka_fc1",0,0,2,25)
  ShowMessage("\\n<Luka>.........")
  PictureClear(5)
  SetBattleBGM(bytes(0x04,0x08,0x6f,0x3a,0x0d,0x52,0x50,0x47,0x3a,0x3a,0x42,0x47,0x4d,0x08,0x3a,0x0a,0x40,0x6e,0x61,0x6d,0x65,0x49,0x22,0x13,0x62,0x6f,0x73,0x73,0x5f,0x79,0x6f,0x6e,0x73,0x65,0x69,0x72,0x65,0x69,0x06,0x3a,0x06,0x45,0x54,0x3a,0x0c,0x40,0x76,0x6f,0x6c,0x75,0x6d,0x65,0x69,0x69,0x3a,0x0b,0x40,0x70,0x69,0x74,0x63,0x68,0x69,0x69))
  ChangeSwitch(22,22,0)
  Battle(0,751,false,false)
  ChangeSwitch(22,22,1)
  SetBattleBGM(bytes(0x04,0x08,0x6f,0x3a,0x0d,0x52,0x50,0x47,0x3a,0x3a,0x42,0x47,0x4d,0x08,0x3a,0x0a,0x40,0x6e,0x61,0x6d,0x65,0x49,0x22,0x0b,0x62,0x61,0x74,0x74,0x6c,0x65,0x06,0x3a,0x06,0x45,0x54,0x3a,0x0c,0x40,0x76,0x6f,0x6c,0x75,0x6d,0x65,0x69,0x69,0x3a,0x0b,0x40,0x70,0x69,0x74,0x63,0x68,0x69,0x69))
  241(bytes(0x04,0x08,0x6f,0x3a,0x0d,0x52,0x50,0x47,0x3a,0x3a,0x42,0x47,0x4d,0x08,0x3a,0x0a,0x40,0x6e,0x61,0x6d,0x65,0x49,0x22,0x14,0x73,0x63,0x65,0x6e,0x65,0x5f,0x65,0x70,0x69,0x6c,0x6f,0x67,0x75,0x65,0x32,0x06,0x3a,0x06,0x45,0x54,0x3a,0x0c,0x40,0x76,0x6f,0x6c,0x75,0x6d,0x65,0x69,0x69,0x3a,0x0b,0x40,0x70,0x69,0x74,0x63,0x68,0x69,0x69))
  PictureDisplay(5,"80_salamander_st03",0,0,0,0,100,100,0,0)
  PictureMove(5,null,0,0,0,0,100,100,255,0,30,true)
  ShowMessageFace("salamander_fc1",2,0,2,26)
  ShowMessage("\\n<Salamander>Kuh, I suppose you win this time...")
  ShowMessageFace("undine_fc1",0,0,2,27)
  ShowMessage("\\n<Undine>Truly a disgrace...")
  ShowMessageFace("salamander_fc1",2,0,2,28)
  ShowMessage("\\n<Salamander>That was the trial to give the hero the power of fire! It's not like you were fighting me one-on-one!")
  ShowMessageFace("undine_fc1",0,0,2,29)
  ShowMessage("\\n<Undine>Not only an uncivilized lizard, but a sore loser as well...")
  If(0,4,0)
   ShowMessageFace("alice_fc5",0,0,2,30)
   ShowMessage("\\n<Alice>Enough of that... Luka demonstrated his strength, so before you blow your top again, grant him your power.")
   0()
  EndIf()
  If(0,5,0)
   ShowMessageFace("iriasu_fc4",1,0,2,31)
   ShowMessage("\\n<Ilias>Fight! Fight! Fight!")
   ShowMessageFace("iriasu_fc4",0,0,2,32)
   ShowMessage("\\n<Ilias>...Wait, grant Luka your power first.\nThen feel free to kill each other.")
   0()
  EndIf()
  PictureDisplay(5,"80_salamander_st01",0,0,0,0,100,100,255,0)
  ShowMessageFace("salamander_fc1",0,0,2,33)
  ShowMessage("\\n<Salamander>...Sure.\nLet's finish what needs to be done.")
  ShowMessageFace("salamander_fc1",0,0,2,34)
  ShowMessage("\\n<Salamander>Luka, your abilities are magnificent.\nI judge you worthy to command the power of the flames.")
  ShowMessageFace("",0,0,2,35)
  ShowMessage("Salamander reaches her palm out towards Luka--")
  250(bytes(0x04,0x08,0x6f,0x3a,0x0c,0x52,0x50,0x47,0x3a,0x3a,0x53,0x45,0x08,0x3a,0x0a,0x40,0x6e,0x61,0x6d,0x65,0x49,0x22,0x0d,0x6d,0x6f,0x6e,0x5f,0x77,0x61,0x72,0x6d,0x06,0x3a,0x06,0x45,0x54,0x3a,0x0b,0x40,0x70,0x69,0x74,0x63,0x68,0x69,0x69,0x3a,0x0c,0x40,0x76,0x6f,0x6c,0x75,0x6d,0x65,0x69,0x69))
  PictureDisplay(6,"sys_white",0,0,0,0,100,100,0,0)
  PictureMove(6,null,0,0,0,0,100,100,255,0,30,true)
  PictureMove(6,null,0,0,0,0,100,100,0,0,30,true)
  PictureClear(6)
  ShowMessageFace("",0,0,2,36)
  ShowMessage("Power flows into Luka's body like a torrent of hellfire!")
  318(0,1,0,3109)
  250(bytes(0x04,0x08,0x6f,0x3a,0x0c,0x52,0x50,0x47,0x3a,0x3a,0x53,0x45,0x08,0x3a,0x0a,0x40,0x6e,0x61,0x6d,0x65,0x49,0x22,0x0a,0x49,0x74,0x65,0x6d,0x31,0x06,0x3a,0x06,0x45,0x54,0x3a,0x0b,0x40,0x70,0x69,0x74,0x63,0x68,0x69,0x69,0x3a,0x0c,0x40,0x76,0x6f,0x6c,0x75,0x6d,0x65,0x69,0x55))
  ShowMessageFace("",0,0,2,37)
  ShowMessage("Luka has acquired \\I[300]\\C[1]Salamander\\C[0]!")
  ShowMessageFace("ruka_fc1",0,0,2,38)
  ShowMessage("\\n<Luka>Thank you, Salamander!\nI promise I'll master the power of the flames!")
  PictureClear(5)
  205(0,bytes(0x04,0x08,0x6f,0x3a,0x13,0x52,0x50,0x47,0x3a,0x3a,0x4d,0x6f,0x76,0x65,0x52,0x6f,0x75,0x74,0x65,0x09,0x3a,0x0c,0x40,0x72,0x65,0x70,0x65,0x61,0x74,0x46,0x3a,0x0f,0x40,0x73,0x6b,0x69,0x70,0x70,0x61,0x62,0x6c,0x65,0x46,0x3a,0x0a,0x40,0x77,0x61,0x69,0x74,0x54,0x3a,0x0a,0x40,0x6c,0x69,0x73,0x74,0x5b,0x07,0x6f,0x3a,0x15,0x52,0x50,0x47,0x3a,0x3a,0x4d,0x6f,0x76,0x65,0x43,0x6f,0x6d,0x6d,0x61,0x6e,0x64,0x07,0x3a,0x0a,0x40,0x63,0x6f,0x64,0x65,0x69,0x18,0x3a,0x10,0x40,0x70,0x61,0x72,0x61,0x6d,0x65,0x74,0x65,0x72,0x73,0x5b,0x00,0x6f,0x3b,0x0a,0x07,0x3b,0x0b,0x69,0x00,0x3b,0x0c,0x5b,0x00))
  242(1)
  ShowMessageFace("",0,0,2,39)
  ShowMessage("\\n<？？？>So at last you acquire the power of fire...")
  ShowMessageFace("ruka_fc1",0,0,2,40)
  ShowMessage("\\n<Luka>Who's--\nNo way--")
  241(bytes(0x04,0x08,0x6f,0x3a,0x0d,0x52,0x50,0x47,0x3a,0x3a,0x42,0x47,0x4d,0x08,0x3a,0x0a,0x40,0x6e,0x61,0x6d,0x65,0x49,0x22,0x0a,0x62,0x6f,0x73,0x73,0x30,0x06,0x3a,0x06,0x45,0x54,0x3a,0x0c,0x40,0x76,0x6f,0x6c,0x75,0x6d,0x65,0x69,0x69,0x3a,0x0b,0x40,0x70,0x69,0x74,0x63,0x68,0x69,0x69))
  250(bytes(0x04,0x08,0x6f,0x3a,0x0c,0x52,0x50,0x47,0x3a,0x3a,0x53,0x45,0x08,0x3a,0x0a,0x40,0x6e,0x61,0x6d,0x65,0x49,0x22,0x0d,0x6d,0x6f,0x6e,0x5f,0x77,0x61,0x72,0x70,0x06,0x3a,0x06,0x45,0x54,0x3a,0x0b,0x40,0x70,0x69,0x74,0x63,0x68,0x69,0x69,0x3a,0x0c,0x40,0x76,0x6f,0x6c,0x75,0x6d,0x65,0x69,0x55))
  ChangeSwitch(31,31,0)
  Wait(60)
  PictureDisplay(5,"80_granberia_st61",0,0,0,0,100,100,0,0)
  PictureMove(5,null,0,0,0,0,100,100,255,0,30,true)
  If(0,4,0)
   ShowMessageFace("alice_fc6",0,0,2,41)
   ShowMessage("\\n<Alice>Granberia!\nHave you finally come to get revenge on us?!")
   0()
  EndIf()
  If(0,5,0)
   ShowMessageFace("iriasu_fc4",7,0,2,42)
   ShowMessage("\\n<Ilias>Granberia... Have you finally come to get revenge on us?!")
   0()
  EndIf()
  ShowMessageFace("granberia_fc3",0,0,2,43)
  ShowMessage("\\n<Granberia>I've appeared before you a number of times before now, but this is the first time I've tracked you down to end your lives!")
  ShowMessageFace("ruka_fc1",0,0,2,44)
  ShowMessage("\\n<Luka>Gulp... That's a lot of pressure...")
  If(4,171,0)
   ShowMessageFace("lizardboss_fc1",2,0,2,45)
   ShowMessage("\\n<Miranda>You honestly tellin' us that you weren't being serious before?!")
   0()
  EndIf()
  ShowMessageFace("salamander_fc1",2,0,2,46)
  ShowMessage("\\n<Salamander>.........")
  PictureDisplay(5,"80_granberia_st65",0,0,0,0,100,100,255,0)
  ShowMessageFace("granberia_fc3",4,0,2,47)
  ShowMessage("\\n<Granberia>Let us fight, Hero Luka!\nI will have your life, as my lord commands!")
  If(0,4,0)
   ShowMessageFace("alice_fc5",0,0,2,48)
   ShowMessage("\\n<Alice>...Don't force yourself, Granberia.\nI'm not blind to your hesitation.")
   PictureDisplay(5,"80_granberia_st64",0,0,0,0,100,100,255,0)
   ShowMessageFace("granberia_fc3",3,0,2,49)
   ShowMessage("\\n<Granberia>.........")
   ShowMessageFace("alice_fc5",2,0,2,50)
   ShowMessage("\\n<Alice>Will you offer your sword to me, or does it still belong to whomever sits on the throne? Ask yourself which is of greater benefit to this world.")
   PictureDisplay(5,"80_granberia_st63",0,0,0,0,100,100,255,0)
   ShowMessageFace("granberia_fc3",2,0,2,51)
   ShowMessage("\\n<Granberia>My sword does not waver...!")
   ShowMessageFace("alice_fc5",2,0,2,52)
   ShowMessage("\\n<Alice>Alipheese the 15th's actions are absolutely incomprehensible. She's not just disturbing the peace, it's like she's trying to cause destruction for its own sake...")
   PictureDisplay(5,"80_granberia_st64",0,0,0,0,100,100,255,0)
   ShowMessageFace("granberia_fc3",3,0,2,53)
   ShowMessage("\\n<Granberia>.........")
   PictureDisplay(5,"80_granberia_st61",0,0,0,0,100,100,255,0)
   ShowMessageFace("granberia_fc3",0,0,2,54)
   ShowMessage("\\n<Granberia>Alipheese the 16th, please let me in on the plan. What in the world is your mother...")
   ShowMessageFace("alice_fc5",0,0,2,55)
   ShowMessage("\\n<Alice>...Hell if I know.\nFiguring that out is why I'm on this adventure in the first place.")
   ShowMessageFace("alice_fc5",2,0,2,56)
   ShowMessage("\\n<Alice>Both Alma Elma and Tamamo are walking their own paths. Even Erubetie appears likely to abandon my mother soon.")
   ShowMessageFace("alice_fc6",1,0,2,57)
   ShowMessage("\\n<Alice>So how about you, Granberia?!\nWill you continue to wield your sword for someone you don't believe in!?")
   PictureDisplay(5,"80_granberia_st64",0,0,0,0,100,100,255,0)
   ShowMessageFace("granberia_fc3",3,0,2,58)
   ShowMessage("\\n<Granberia>.........")
   PictureDisplay(5,"80_granberia_st61",0,0,0,0,100,100,255,0)
   ShowMessageFace("granberia_fc3",0,0,2,59)
   ShowMessage("\\n<Granberia>...I shall withdraw for now.\nIt would be an insult to my blade to do battle while harboring indecision...")
   ShowMessageFace("alice_fc5",0,0,2,60)
   ShowMessage("\\n<Alice>...Granberia, will you come with us?")
   ShowMessageFace("granberia_fc3",0,0,2,61)
   ShowMessage("\\n<Granberia>...Nay.\nTurning my blade on my master after accepting her orders is out of the question.")
   ShowMessageFace("granberia_fc3",0,0,2,62)
   ShowMessage("\\n<Granberia>I need to do some soul-searching and decide to whom my sword belongs.")
   PictureClear(5)
   Wait(60)
   250(bytes(0x04,0x08,0x6f,0x3a,0x0c,0x52,0x50,0x47,0x3a,0x3a,0x53,0x45,0x08,0x3a,0x0a,0x40,0x6e,0x61,0x6d,0x65,0x49,0x22,0x0d,0x6d,0x6f,0x6e,0x5f,0x77,0x61,0x72,0x70,0x06,0x3a,0x06,0x45,0x54,0x3a,0x0b,0x40,0x70,0x69,0x74,0x63,0x68,0x69,0x69,0x3a,0x0c,0x40,0x76,0x6f,0x6c,0x75,0x6d,0x65,0x69,0x55))
   ChangeSwitch(31,31,1)
   Wait(60)
   241(bytes(0x04,0x08,0x6f,0x3a,0x0d,0x52,0x50,0x47,0x3a,0x3a,0x42,0x47,0x4d,0x08,0x3a,0x0a,0x40,0x6e,0x61,0x6d,0x65,0x49,0x22,0x14,0x73,0x63,0x65,0x6e,0x65,0x5f,0x65,0x70,0x69,0x6c,0x6f,0x67,0x75,0x65,0x32,0x06,0x3a,0x06,0x45,0x54,0x3a,0x0c,0x40,0x76,0x6f,0x6c,0x75,0x6d,0x65,0x69,0x69,0x3a,0x0b,0x40,0x70,0x69,0x74,0x63,0x68,0x69,0x69))
   ShowMessageFace("salamander_fc1",2,0,2,63)
   ShowMessage("\\n<Salamander>...I swear, she's such an awkward child.")
   ShowMessage("No matter how strong she gets, she remains a whelp.")
   ShowMessageFace("alice_fc5",3,0,2,64)
   ShowMessage("\\n<Alice>She'll come around before long.\nShe'll realize we aren't her enemies...")
   0()
  EndIf()
  If(0,5,0)
   ShowMessageFace("iriasu_fc4",7,0,2,65)
   ShowMessage("\\n<Ilias>Tch... She's got us cornered!\nWe've got to fight, Luka!")
   ShowMessageFace("ruka_fc1",0,0,2,66)
   ShowMessage("\\n<Luka>I know! I won't back down, no matter how strong our opponent!")
   If(4,129,0)
    ShowMessageFace("brunhild_fc1",0,0,2,67)
    ShowMessage("\\n<Hild>Target: Dragonkin Swordsman...\nCommence battle.")
    0()
   EndIf()
   PictureClear(5)
   SetBattleBGM(bytes(0x04,0x08,0x6f,0x3a,0x0d,0x52,0x50,0x47,0x3a,0x3a,0x42,0x47,0x4d,0x08,0x3a,0x0a,0x40,0x6e,0x61,0x6d,0x65,0x49,0x22,0x11,0x62,0x6f,0x73,0x73,0x5f,0x73,0x69,0x74,0x65,0x6e,0x6e,0x6f,0x06,0x3a,0x06,0x45,0x54,0x3a,0x0c,0x40,0x76,0x6f,0x6c,0x75,0x6d,0x65,0x69,0x69,0x3a,0x0b,0x40,0x70,0x69,0x74,0x63,0x68,0x69,0x69))
   ChangeSwitch(22,22,0)
   Battle(0,752,false,false)
   ChangeSwitch(22,22,1)
   SetBattleBGM(bytes(0x04,0x08,0x6f,0x3a,0x0d,0x52,0x50,0x47,0x3a,0x3a,0x42,0x47,0x4d,0x08,0x3a,0x0a,0x40,0x6e,0x61,0x6d,0x65,0x49,0x22,0x0b,0x62,0x61,0x74,0x74,0x6c,0x65,0x06,0x3a,0x06,0x45,0x54,0x3a,0x0c,0x40,0x76,0x6f,0x6c,0x75,0x6d,0x65,0x69,0x69,0x3a,0x0b,0x40,0x70,0x69,0x74,0x63,0x68,0x69,0x69))
   ChangeSwitch(1912,1912,0)
   PictureDisplay(5,"80_granberia_st61",0,0,0,0,100,100,0,0)
   PictureMove(5,null,0,0,0,0,100,100,255,0,30,true)
   ShowMessageFace("granberia_fc3",0,0,2,68)
   ShowMessage("\\n<Granberia>You certainly have skill...\nHer Majesty was right to judge you a threat.")
   ShowMessageFace("ruka_fc1",0,0,2,69)
   ShowMessage("\\n<Luka>Gah, did we even scratch her!?")
   If(4,129,0)
    ShowMessageFace("brunhild_fc1",0,0,2,70)
    ShowMessage("\\n<Hild>Enemy combat potential remains high...")
    0()
   EndIf()
   PictureDisplay(5,"80_granberia_st65",0,0,0,0,100,100,255,0)
   ShowMessageFace("granberia_fc3",4,0,2,71)
   ShowMessage("\\n<Granberia>Very well, I shall take this seriously--")
   ShowMessageFace("salamander_fc1",2,0,2,72)
   ShowMessage("\\n<Salamander>...Don't force yourself, Granberia.")
   PictureDisplay(5,"80_granberia_st63",0,0,0,0,100,100,255,0)
   ShowMessageFace("granberia_fc3",2,0,2,73)
   ShowMessage("\\n<Granberia>Master...")
   ShowMessageFace("salamander_fc1",2,0,2,74)
   ShowMessage("\\n<Salamander>Did you think I wouldn't notice the hesitation in your sword? My strength may be inferior to yours now, but that doesn't mean I've gone blind.")
   PictureDisplay(5,"80_granberia_st64",0,0,0,0,100,100,255,0)
   ShowMessageFace("granberia_fc3",3,0,2,75)
   ShowMessage("\\n<Granberia>.........")
   PictureDisplay(5,"80_granberia_st61",0,0,0,0,100,100,255,0)
   ShowMessageFace("granberia_fc3",0,0,2,76)
   ShowMessage("\\n<Granberia>...I cannot lie to you, master.\nI admit that I am in doubt.")
   ShowMessageFace("salamander_fc1",2,0,2,77)
   ShowMessage("\\n<Salamander>As long as you're aware of it, nothing more needs to be said. You should take time to reconsider what you're fighting for.")
   ShowMessageFace("salamander_fc1",2,0,2,78)
   ShowMessage("\\n<Salamander>On that front, your opponents here are several steps ahead of you. They have zero doubts as to what they're fighting to protect.")
   PictureDisplay(5,"80_granberia_st64",0,0,0,0,100,100,255,0)
   ShowMessageFace("granberia_fc3",3,0,2,79)
   ShowMessage("\\n<Granberia>.........")
   PictureDisplay(5,"80_granberia_st61",0,0,0,0,100,100,255,0)
   ShowMessageFace("granberia_fc3",0,0,2,80)
   ShowMessage("\\n<Granberia>I promise you a rematch at the Monster Lord's castle. My sword will not waver then.")
   ShowMessageFace("ruka_fc1",0,0,2,81)
   ShowMessage("\\n<Luka>Okay. I know I'll make it to the Monster Lord's castle.")
   ShowMessageFace("granberia_fc3",0,0,2,82)
   ShowMessage("\\n<Granberia>Then I'll be waiting for you, Hero Luka.")
   PictureClear(5)
   Wait(60)
   250(bytes(0x04,0x08,0x6f,0x3a,0x0c,0x52,0x50,0x47,0x3a,0x3a,0x53,0x45,0x08,0x3a,0x0a,0x40,0x6e,0x61,0x6d,0x65,0x49,0x22,0x0d,0x6d,0x6f,0x6e,0x5f,0x77,0x61,0x72,0x70,0x06,0x3a,0x06,0x45,0x54,0x3a,0x0b,0x40,0x70,0x69,0x74,0x63,0x68,0x69,0x69,0x3a,0x0c,0x40,0x76,0x6f,0x6c,0x75,0x6d,0x65,0x69,0x55))
   ChangeSwitch(31,31,1)
   Wait(60)
   241(bytes(0x04,0x08,0x6f,0x3a,0x0d,0x52,0x50,0x47,0x3a,0x3a,0x42,0x47,0x4d,0x08,0x3a,0x0a,0x40,0x6e,0x61,0x6d,0x65,0x49,0x22,0x14,0x73,0x63,0x65,0x6e,0x65,0x5f,0x65,0x70,0x69,0x6c,0x6f,0x67,0x75,0x65,0x32,0x06,0x3a,0x06,0x45,0x54,0x3a,0x0c,0x40,0x76,0x6f,0x6c,0x75,0x6d,0x65,0x69,0x69,0x3a,0x0b,0x40,0x70,0x69,0x74,0x63,0x68,0x69,0x69))
   ShowMessageFace("salamander_fc1",2,0,2,83)
   ShowMessage("\\n<Salamander>...I swear, she's such an awkward child.")
   ShowMessageFace("iriasu_fc4",2,0,2,84)
   ShowMessage("\\n<Ilias>Maybe it would have been better to strike her down while she was still unsure of herself. Next time we meet, I doubt she'll hold back her full power.")
   0()
  EndIf()
  205(0,bytes(0x04,0x08,0x6f,0x3a,0x13,0x52,0x50,0x47,0x3a,0x3a,0x4d,0x6f,0x76,0x65,0x52,0x6f,0x75,0x74,0x65,0x09,0x3a,0x0c,0x40,0x72,0x65,0x70,0x65,0x61,0x74,0x46,0x3a,0x0f,0x40,0x73,0x6b,0x69,0x70,0x70,0x61,0x62,0x6c,0x65,0x46,0x3a,0x0a,0x40,0x77,0x61,0x69,0x74,0x54,0x3a,0x0a,0x40,0x6c,0x69,0x73,0x74,0x5b,0x07,0x6f,0x3a,0x15,0x52,0x50,0x47,0x3a,0x3a,0x4d,0x6f,0x76,0x65,0x43,0x6f,0x6d,0x6d,0x61,0x6e,0x64,0x07,0x3a,0x0a,0x40,0x63,0x6f,0x64,0x65,0x69,0x15,0x3a,0x10,0x40,0x70,0x61,0x72,0x61,0x6d,0x65,0x74,0x65,0x72,0x73,0x5b,0x00,0x6f,0x3b,0x0a,0x07,0x3b,0x0b,0x69,0x00,0x3b,0x0c,0x5b,0x00))
  Wait(60)
  PictureDisplay(5,"80_salamander_st03",0,0,0,0,100,100,0,0)
  PictureMove(5,null,0,0,0,0,100,100,255,0,30,true)
  ShowMessageFace("salamander_fc1",0,0,2,85)
  ShowMessage("\\n<Salamander>So... You're fighting to stop the destruction of the world. It sounds like you could use all the help you can get.")
  ShowMessageFace("sylph_fc1",0,0,2,86)
  ShowMessage("\\n<Sylph>That means you're going to join the party! ♪")
  ShowMessageFace("gnome_fc1",0,0,2,87)
  ShowMessage("\\n<Gnome>.........")
  ShowMessageFace("undine_fc1",2,0,2,88)
  ShowMessage("\\n<Undine>I hate the heat. Stay away from me...")
  If(4,72,0)
   ShowMessageFace("phoenix_fc1",1,0,2,89)
   ShowMessage("\\n<Mini>Let's get fired up together!")
   0()
  EndIf()
  ShowMessageFace("salamander_fc1",0,0,2,90)
  ShowMessage("\\n<Salamander>Without further ado, I'll lend you my strength...\nLet's overcome this together!")
  PictureClear(5)
  205(0,bytes(0x04,0x08,0x6f,0x3a,0x13,0x52,0x50,0x47,0x3a,0x3a,0x4d,0x6f,0x76,0x65,0x52,0x6f,0x75,0x74,0x65,0x09,0x3a,0x0c,0x40,0x72,0x65,0x70,0x65,0x61,0x74,0x46,0x3a,0x0f,0x40,0x73,0x6b,0x69,0x70,0x70,0x61,0x62,0x6c,0x65,0x46,0x3a,0x0a,0x40,0x77,0x61,0x69,0x74,0x54,0x3a,0x0a,0x40,0x6c,0x69,0x73,0x74,0x5b,0x09,0x6f,0x3a,0x15,0x52,0x50,0x47,0x3a,0x3a,0x4d,0x6f,0x76,0x65,0x43,0x6f,0x6d,0x6d,0x61,0x6e,0x64,0x07,0x3a,0x0a,0x40,0x63,0x6f,0x64,0x65,0x69,0x2a,0x3a,0x10,0x40,0x70,0x61,0x72,0x61,0x6d,0x65,0x74,0x65,0x72,0x73,0x5b,0x00,0x6f,0x3b,0x0a,0x07,0x3b,0x0b,0x69,0x0f,0x3b,0x0c,0x5b,0x00,0x6f,0x3b,0x0a,0x07,0x3b,0x0b,0x69,0x2c,0x3b,0x0c,0x5b,0x00,0x6f,0x3b,0x0a,0x07,0x3b,0x0b,0x69,0x00,0x3b,0x0c,0x5b,0x00))
  355("add_actor_ex(15)")
  249(bytes(0x04,0x08,0x6f,0x3a,0x0c,0x52,0x50,0x47,0x3a,0x3a,0x4d,0x45,0x08,0x3a,0x0a,0x40,0x6e,0x61,0x6d,0x65,0x49,0x22,0x0c,0x66,0x61,0x6e,0x66,0x61,0x6c,0x65,0x06,0x3a,0x06,0x45,0x54,0x3a,0x0b,0x40,0x70,0x69,0x74,0x63,0x68,0x69,0x69,0x3a,0x0c,0x40,0x76,0x6f,0x6c,0x75,0x6d,0x65,0x69,0x69))
  ShowMessageFace("",0,0,2,91)
  ShowMessage("Salamander has joined the party!")
  ChangeVariable(1001,1001,0,0,28)
  355("gain_medal(50)")
  ShowMessageFace("ruka_fc1",0,0,2,92)
  ShowMessage("\\n<Luka>That's all four of the spirits now.\nI can finally check that one off the message from my father.")
  If(0,4,0)
   ShowMessageFace("alice_fc5",0,0,2,93)
   ShowMessage("\\n<Alice>Your father said this was all part of following history, so what did the correct history's Luka do next?")
   0()
  EndIf()
  If(0,5,0)
   ShowMessageFace("iriasu_fc4",2,0,2,94)
   ShowMessage("\\n<Ilias>This was all according to history...\nNext, Luka from the correct history did... Hmmm, what did he do, again?")
   0()
  EndIf()
  If(0,6,0)
   ShowMessageFace("sonia_fc2",2,0,2,95)
   ShowMessage("\\n<Sonya>He would have headed to the Monster Lord's castle, right? Well, we don't know if the Monster Lord declared war on the world in the correct history...")
   0()
  Else()
   ShowMessageFace("ruka_fc1",0,0,2,96)
   ShowMessage("\\n<Luka>He would have headed to the Monster Lord's castle, right? Well, we don't know if the Monster Lord declared war on the world in the correct history...")
   0()
  EndIf()
  If(0,4,0)
   ShowMessageFace("alice_fc5",0,0,2,97)
   ShowMessage("\\n<Alice>Based on the state of world affairs, it makes sense to go to the castle, but before that, there are some important things we should do in the Gold region.")
   ShowMessageFace("alice_fc5",0,0,2,98)
   ShowMessage("\\n<Alice>Further west from Lady's Village, there's a Tartarus rift in the desert we should investigate.")
   0()
  EndIf()
  If(0,5,0)
   ShowMessageFace("iriasu_fc4",2,0,2,99)
   ShowMessage("\\n<Ilias>Based on the state of world affairs, the Monster Lord must be slain, but before that, we still have important matters to attend to in the Gold region.")
   ShowMessageFace("iriasu_fc4",2,0,2,100)
   ShowMessage("\\n<Ilias>Further west from Lady's Village, there's a Tartarus rift in the desert we should investigate.")
   0()
  EndIf()
  If(0,6,0)
   ShowMessageFace("sonia_fc2",2,0,2,101)
   ShowMessage("\\n<Sonya>We have to cross the Nightmare Wastes to get to the desert on the western edge of the region. Apparently that's been the greatest obstacle to investigating the rift there...")
   0()
  Else()
   ShowMessageFace("ruka_fc1",0,0,2,102)
   ShowMessage("\\n<Luka>We have to cross the Nightmare Wastes to get to the desert on the western edge of the region. Apparently that's been the greatest obstacle to investigating the rift there...")
   0()
  EndIf()
  If(0,4,0)
   ShowMessageFace("alice_fc5",2,0,2,103)
   ShowMessage("\\n<Alice>Nevertheless, we have to go there.\nLet's get moving. To Tartarus!")
   0()
  EndIf()
  If(0,5,0)
   ShowMessageFace("iriasu_fc4",0,0,2,104)
   ShowMessage("\\n<Ilias>Nevertheless, we must go there.\nLet's get moving. To Tartarus!")
   0()
  EndIf()
  ShowMessageFace("",0,0,2,105)
  ShowMessage("At last we're going into the rift that opened in the desert of Western Gold. What could possibly be waiting for us inside?")
  314(0,0)
  241(bytes(0x04,0x08,0x6f,0x3a,0x0d,0x52,0x50,0x47,0x3a,0x3a,0x42,0x47,0x4d,0x08,0x3a,0x0a,0x40,0x6e,0x61,0x6d,0x65,0x49,0x22,0x12,0x64,0x75,0x6e,0x67,0x65,0x6f,0x6e,0x5f,0x6b,0x61,0x7a,0x61,0x6e,0x06,0x3a,0x06,0x45,0x54,0x3a,0x0c,0x40,0x76,0x6f,0x6c,0x75,0x6d,0x65,0x69,0x69,0x3a,0x0b,0x40,0x70,0x69,0x74,0x63,0x68,0x69,0x69))
  EndEventProcessing()
  0()
 PAGE   2
  // condition: variable 1001 >= 28
  0()



EVENT   22
 PAGE   1
  // condition: switch 1015 is ON
  // condition: variable 1047 >= 3
  // condition: party contains actor #167
  ChangeVariable(1047,1047,0,0,4)
  ShowMessageFace("lusia_fc1",0,0,2,1)
  ShowMessage("\\n<Lucia>This is the spot where the flame spirit's power gathers. I can feel the natural heat energy.")
  ShowMessageFace("lusia_fc1",2,0,2,2)
  ShowMessage("\\n<Lucia>...In other words, it's hot.")
  ShowMessageFace("sylph_fc1",7,0,2,3)
  ShowMessage("\\n<Sylph>We get to do THAT again!?")
  ShowMessage("Woo hoo! This is gonna be fun! ♪")
  ShowMessageFace("lusia_fc1",2,0,2,4)
  ShowMessage("\\n<Lucia>.........")
  ShowMessageFace("lusia_fc1",0,0,2,5)
  ShowMessage("\\n<Lucia>After this final experiment, I can't guarantee my body will escape unscathed. If worse comes to worst, I might be consumed entirely.")
  If(0,6,0)
   ShowMessageFace("sonia_fc3",7,0,2,6)
   ShowMessage("\\n<Sonya>Whoa, I thought you were just performing some measurements! You've really been performing that dangerous of an experiment all this time?")
   0()
  Else()
   ShowMessageFace("ruka_fc1",0,0,2,7)
   ShowMessage("\\n<Luka>Whoa, I thought you were just performing some measurements! You've really been performing that dangerous of an experiment all this time?")
   0()
  EndIf()
  ShowMessageFace("lusia_fc1",0,0,2,8)
  ShowMessage("\\n<Lucia>Elemental assimilation was always the ultimate goal of this experiment. I've already taken all the necessary steps using the measurements analyzed so far.")
  ShowMessageFace("ruka_fc1",0,0,2,9)
  ShowMessage("\\n<Luka>I guess there's no point stopping you now...\nWe'll just stand back and hope it works.")
  ShowMessageFace("lusia_fc1",0,0,2,10)
  ShowMessage("\\n<Lucia>Before I start, there's something I want you to have. This is the result of Lily's research, which I have been keeping secret.")
  250(bytes(0x04,0x08,0x6f,0x3a,0x0c,0x52,0x50,0x47,0x3a,0x3a,0x53,0x45,0x08,0x3a,0x0a,0x40,0x6e,0x61,0x6d,0x65,0x49,0x22,0x0a,0x49,0x74,0x65,0x6d,0x31,0x06,0x3a,0x06,0x45,0x54,0x3a,0x0b,0x40,0x70,0x69,0x74,0x63,0x68,0x69,0x69,0x3a,0x0c,0x40,0x76,0x6f,0x6c,0x75,0x6d,0x65,0x69,0x55))
  ChangeInventory_Item(638,0,0,1)
  ShowMessageFace("lusia_fc1",0,0,2,11)
  ShowMessage("\\n<Lucia>With this in your possession, anyone with a human body can change their race to Worm Summoner at Ilias Temple.")
  If(0,4,0)
   ShowMessageFace("alice_fc5",1,0,2,12)
   ShowMessage("\\n<Alice>Understood. We'll keep this safe.")
   0()
  EndIf()
  If(0,5,0)
   ShowMessageFace("iriasu_fc4",2,0,2,13)
   ShowMessage("\\n<Ilias>I'll keep such a dangerous item in my custody. It shall remain a forbidden art for our party's use only.")
   0()
  EndIf()
  If(0,6,0)
   ShowMessageFace("ruka_fc1",0,0,2,14)
   ShowMessage("\\n<Luka>A race change that only humans can use...\nI'm not keen on the idea of being a Worm Summoner. How about you, Sonya?")
   ShowMessageFace("sonia_fc2",2,0,2,15)
   ShowMessage("\\n<Sonya>Summoning tentacles, hmmm...\nSeems kinda gross, but I might be interested in giving it a try.")
   0()
  EndIf()
  ShowMessageFace("lusia_fc1",0,0,2,16)
  ShowMessage("\\n<Lucia>Okay, first I need to take some elemental fire measurements.")
  ShowMessageFace("salamander_fc1",2,0,2,17)
  ShowMessage("\\n<Salamander>Wh-what the hell is this feeling!\nMy-my body is... Hauuu...")
  ShowMessageFace("undine_fc1",2,0,2,18)
  ShowMessage("\\n<Undine>What's got the fire lizard so hot and bothered?")
  ShowMessageFace("lusia_fc1",0,0,2,19)
  ShowMessage("\\n<Lucia>I've isolated the target.\nNow to send out the interference pattern...")
  ShowMessageFace("salamander_fc1",2,0,2,20)
  ShowMessage("\\n<Salamander>Th-this isn't...")
  ShowMessageFace("lusia_fc1",0,0,2,21)
  ShowMessage("\\n<Lucia>Strengthening interference waves...\n2x...\n4x...\n8x...")
  ShowMessageFace("salamander_fc1",2,0,2,22)
  ShowMessage("\\n<Salamander>hap...")
  ShowMessageFace("sylph_fc1",7,0,2,23)
  ShowMessage("\\n<Sylph>.........")
  ShowMessageFace("salamander_fc1",2,0,2,24)
  ShowMessage("\\n<Salamander>peninggggggggg...")
  ShowMessageFace("sylph_fc1",7,0,2,25)
  ShowMessage("\\n<Sylph>Grrrrrr...")
  ShowMessageFace("salamander_fc1",2,0,2,26)
  ShowMessage("\\n<Salamander>Can't... stop...!")
  241(bytes(0x04,0x08,0x6f,0x3a,0x0d,0x52,0x50,0x47,0x3a,0x3a,0x42,0x47,0x4d,0x08,0x3a,0x0a,0x40,0x6e,0x61,0x6d,0x65,0x49,0x22,0x10,0x73,0x63,0x65,0x6e,0x65,0x5f,0x63,0x6f,0x6d,0x69,0x31,0x06,0x3a,0x06,0x45,0x54,0x3a,0x0c,0x40,0x76,0x6f,0x6c,0x75,0x6d,0x65,0x69,0x69,0x3a,0x0b,0x40,0x70,0x69,0x74,0x63,0x68,0x69,0x69))
  212(-1,1160,false)
  ShowMessageFace("sylph_fc2",3,0,2,27)
  ShowMessage("\\n<Sylph>SO CUTE!")
  ShowMessageFace("salamander_fc1",0,0,2,28)
  ShowMessage("\\n<Salamander>Faaa...")
  ShowMessageFace("undine_fc1",2,0,2,29)
  ShowMessage("\\n<Undine>Enjoying some post-coital bliss I see...")
  ShowMessageFace("sylph_fc2",4,0,2,30)
  ShowMessage("\\n<Sylph>.........")
  318(0,167,0,3029)
  250(bytes(0x04,0x08,0x6f,0x3a,0x0c,0x52,0x50,0x47,0x3a,0x3a,0x53,0x45,0x08,0x3a,0x0a,0x40,0x6e,0x61,0x6d,0x65,0x49,0x22,0x0a,0x49,0x74,0x65,0x6d,0x31,0x06,0x3a,0x06,0x45,0x54,0x3a,0x0b,0x40,0x70,0x69,0x74,0x63,0x68,0x69,0x69,0x3a,0x0c,0x40,0x76,0x6f,0x6c,0x75,0x6d,0x65,0x69,0x55))
  ShowMessageFace("",0,0,2,31)
  ShowMessage("Lucia has learned \\I[300]\\C[1]Flame Pillar\\C[0]!")
  241(bytes(0x04,0x08,0x6f,0x3a,0x0d,0x52,0x50,0x47,0x3a,0x3a,0x42,0x47,0x4d,0x08,0x3a,0x0a,0x40,0x6e,0x61,0x6d,0x65,0x49,0x22,0x12,0x64,0x75,0x6e,0x67,0x65,0x6f,0x6e,0x5f,0x6b,0x61,0x7a,0x61,0x6e,0x06,0x3a,0x06,0x45,0x54,0x3a,0x0c,0x40,0x76,0x6f,0x6c,0x75,0x6d,0x65,0x69,0x69,0x3a,0x0b,0x40,0x70,0x69,0x74,0x63,0x68,0x69,0x69))
  ShowMessageFace("lusia_fc1",0,0,2,32)
  ShowMessage("\\n<Lucia>I've finished measuring the four elemental attributes. This isn't my end goal, though...")
  ShowMessageFace("lusia_fc1",0,0,2,33)
  ShowMessage("\\n<Lucia>Everything is ready to go, so let the experiment begin!")
  ShowMessageFace("lusia_fc1",0,0,2,34)
  ShowMessage("\\n<Lucia>Lily and I researched rearranging the magical composition of the human body. If I infuse the elements into the human body, then--")
  ShowMessageFace("lusia_fc1",0,0,2,35)
  ShowMessage("\\n<Lucia>I'll draw the elements into my body...\nYes, this is it!")
  250(bytes(0x04,0x08,0x6f,0x3a,0x0c,0x52,0x50,0x47,0x3a,0x3a,0x53,0x45,0x08,0x3a,0x0a,0x40,0x6e,0x61,0x6d,0x65,0x49,0x22,0x0b,0x4d,0x61,0x67,0x69,0x63,0x31,0x06,0x3a,0x06,0x45,0x54,0x3a,0x0b,0x40,0x70,0x69,0x74,0x63,0x68,0x69,0x69,0x3a,0x0c,0x40,0x76,0x6f,0x6c,0x75,0x6d,0x65,0x69,0x55))
  224(bytes(0x04,0x08,0x75,0x3a,0x0a,0x43,0x6f,0x6c,0x6f,0x72,0x25,0x00,0x00,0x00,0x00,0x00,0xe0,0x6f,0x40,0x00,0x00,0x00,0x00,0x00,0xe0,0x6f,0x40,0x00,0x00,0x00,0x00,0x00,0xe0,0x6f,0x40,0x00,0x00,0x00,0x00,0x00,0xe0,0x6f,0x40),60,true)
  ShowMessageFace("lusia_fc1",0,0,2,36)
  ShowMessage("\\n<Lucia>My research is complete.\nI still appear human, but I've successfully attuned myself with nature.")
  If(12,"actor_class_level_over?(167, 214, 1)")
   0()
  Else()
   355("set_class_level(167, 214, 10, false)")
   355("set_class_level(167, 215, 1, false)")
   0()
  EndIf()
  ShowMessageFace("lusia_fc1",0,0,2,37)
  ShowMessage("\\n<Lucia>My body is now extremely similar to a fairy.\nIn short, I've been reborn as a fairy while keeping my appearance.")
  250(bytes(0x04,0x08,0x6f,0x3a,0x0c,0x52,0x50,0x47,0x3a,0x3a,0x53,0x45,0x08,0x3a,0x0a,0x40,0x6e,0x61,0x6d,0x65,0x49,0x22,0x11,0x6d,0x6f,0x6e,0x5f,0x66,0x61,0x6e,0x66,0x61,0x6c,0x65,0x33,0x06,0x3a,0x06,0x45,0x54,0x3a,0x0b,0x40,0x70,0x69,0x74,0x63,0x68,0x69,0x69,0x3a,0x0c,0x40,0x76,0x6f,0x6c,0x75,0x6d,0x65,0x69,0x55))
  ShowMessageFace("",0,0,2,38)
  ShowMessage("Lucia can now assume Fairy-type races!")
  241(bytes(0x04,0x08,0x6f,0x3a,0x0d,0x52,0x50,0x47,0x3a,0x3a,0x42,0x47,0x4d,0x08,0x3a,0x0a,0x40,0x6e,0x61,0x6d,0x65,0x49,0x22,0x14,0x73,0x63,0x65,0x6e,0x65,0x5f,0x65,0x70,0x69,0x6c,0x6f,0x67,0x75,0x65,0x32,0x06,0x3a,0x06,0x45,0x54,0x3a,0x0c,0x40,0x76,0x6f,0x6c,0x75,0x6d,0x65,0x69,0x69,0x3a,0x0b,0x40,0x70,0x69,0x74,0x63,0x68,0x69,0x69))
  ShowMessageFace("ruka_fc1",0,0,2,39)
  ShowMessage("\\n<Luka>That was amazing!")
  If(0,4,0)
   ShowMessageFace("alice_fc5",2,0,2,40)
   ShowMessage("\\n<Alice>You changed into a fairy...?\nI can't believe that's even possible.")
   0()
  EndIf()
  If(0,5,0)
   ShowMessageFace("iriasu_fc4",2,0,2,41)
   ShowMessage("\\n<Ilias>Race changing into a fairy...\nMore strange research...")
   0()
  EndIf()
  ShowMessageFace("lusia_fc1",0,0,2,42)
  ShowMessage("\\n<Lucia>Now that I've been reborn, I hope to continue being useful to you.")
  ShowMessageFace("ruka_fc1",0,0,2,43)
  ShowMessage("\\n<Luka>Glad to keep having you along!")
  ShowMessageFace("lusia_fc1",0,0,2,44)
  ShowMessage("\\n<Lucia>Chi pa pa...")
  If(0,6,0)
   ShowMessageFace("sonia_fc2",2,0,2,45)
   ShowMessage("\\n<Sonya>...Did you say something?")
   0()
  Else()
   ShowMessageFace("ruka_fc1",0,0,2,46)
   ShowMessage("\\n<Luka>...Did you say something?")
   0()
  EndIf()
  ShowMessageFace("lusia_fc1",0,0,2,47)
  ShowMessage("\\n<Lucia>Nope, not a thing...")
  ShowMessageFace("sylph_fc1",7,0,2,48)
  ShowMessage("\\n<Sylph>Grrr...")
  355("gain_medal(2107)")
  241(bytes(0x04,0x08,0x6f,0x3a,0x0d,0x52,0x50,0x47,0x3a,0x3a,0x42,0x47,0x4d,0x08,0x3a,0x0a,0x40,0x6e,0x61,0x6d,0x65,0x49,0x22,0x12,0x64,0x75,0x6e,0x67,0x65,0x6f,0x6e,0x5f,0x6b,0x61,0x7a,0x61,0x6e,0x06,0x3a,0x06,0x45,0x54,0x3a,0x0c,0x40,0x76,0x6f,0x6c,0x75,0x6d,0x65,0x69,0x69,0x3a,0x0b,0x40,0x70,0x69,0x74,0x63,0x68,0x69,0x69))
  EndEventProcessing()
  0()
 PAGE   2
  // condition: variable 1047 >= 4
  0()



EVENT   23
 PAGE   1
  250(bytes(0x04,0x08,0x6f,0x3a,0x0c,0x52,0x50,0x47,0x3a,0x3a,0x53,0x45,0x08,0x3a,0x0a,0x40,0x6e,0x61,0x6d,0x65,0x49,0x22,0x0a,0x48,0x65,0x61,0x6c,0x37,0x06,0x3a,0x06,0x45,0x54,0x3a,0x0b,0x40,0x70,0x69,0x74,0x63,0x68,0x69,0x69,0x3a,0x0c,0x40,0x76,0x6f,0x6c,0x75,0x6d,0x65,0x69,0x55))
  224(bytes(0x04,0x08,0x75,0x3a,0x0a,0x43,0x6f,0x6c,0x6f,0x72,0x25,0x00,0x00,0x00,0x00,0x00,0xe0,0x6f,0x40,0x00,0x00,0x00,0x00,0x00,0xe0,0x6f,0x40,0x00,0x00,0x00,0x00,0x00,0xe0,0x6f,0x40,0x00,0x00,0x00,0x00,0x00,0xe0,0x6f,0x40),30,true)
  314(0,0)
  ShowMessageFace("",0,0,2,1)
  ShowMessage("The party's HP and MP have been fully restored!")
  0()



EVENT   24
 PAGE   1
  // condition: switch 31 is ON
  0()



EVENT   25
 PAGE   1
  // condition: switch 1015 is ON
  // condition: party contains actor #99
  ChangeSwitch(2144,2144,0)
  ShowMessageFace("namazu_fc1",0,0,2,1)
  ShowMessage("\\n<Gigi>Mmmn, I can feel the flame energy...\nIt scorched my whiskers.")
  ShowMessageFace("namazu_fc1",0,0,2,2)
  ShowMessage("\\n<Gigi>As I've become older, I've gotten good at attuning to nature. If I can take in this flame energy...")
  318(0,99,0,3029)
  250(bytes(0x04,0x08,0x6f,0x3a,0x0c,0x52,0x50,0x47,0x3a,0x3a,0x53,0x45,0x08,0x3a,0x0a,0x40,0x6e,0x61,0x6d,0x65,0x49,0x22,0x0a,0x49,0x74,0x65,0x6d,0x31,0x06,0x3a,0x06,0x45,0x54,0x3a,0x0b,0x40,0x70,0x69,0x74,0x63,0x68,0x69,0x69,0x3a,0x0c,0x40,0x76,0x6f,0x6c,0x75,0x6d,0x65,0x69,0x55))
  ShowMessageFace("",0,0,2,3)
  ShowMessage("Gigi has learned \\I[157]\\C[1]Flame Pillar\\C[0]!")
  ShowMessageFace("namazu_fc1",0,0,2,4)
  ShowMessage("\\n<Gigi>Mmn, just like that.\nAll right, we can leave!")
  EndEventProcessing()
  0()
 PAGE   2
  // condition: switch 2144 is ON
  0()
