﻿


EVENT   1
 PAGE   1
  // condition: switch 2278 is ON
  241(bytes(0x04,0x08,0x6f,0x3a,0x0d,0x52,0x50,0x47,0x3a,0x3a,0x42,0x47,0x4d,0x08,0x3a,0x0a,0x40,0x6e,0x61,0x6d,0x65,0x49,0x22,0x10,0x73,0x63,0x65,0x6e,0x65,0x5f,0x63,0x6f,0x6d,0x69,0x32,0x06,0x3a,0x06,0x45,0x54,0x3a,0x0c,0x40,0x76,0x6f,0x6c,0x75,0x6d,0x65,0x69,0x69,0x3a,0x0b,0x40,0x70,0x69,0x74,0x63,0x68,0x69,0x69))
  ShowMessageFace("ruka_fc1",0,0,2,1)
  ShowMessage("\\n<Luka>......")
  If(0,6,0)
   ShowMessageFace("sonia_fc4",0,0,2,2)
   ShowMessage("\\n<Sonya>......")
   0()
  EndIf()
  ShowMessageFace("elfhime_fc1",0,0,2,3)
  ShowMessage("\\n<エルフ姫>......")
  ChangeVariable(11,11,0,3,5,34,1)
  If(1,11,0,29,5)
   TeleportEvent(34,0,46,29,4)
   0()
  EndIf()
  205(34,bytes(0x04,0x08,0x6f,0x3a,0x13,0x52,0x50,0x47,0x3a,0x3a,0x4d,0x6f,0x76,0x65,0x52,0x6f,0x75,0x74,0x65,0x09,0x3a,0x0c,0x40,0x72,0x65,0x70,0x65,0x61,0x74,0x46,0x3a,0x0f,0x40,0x73,0x6b,0x69,0x70,0x70,0x61,0x62,0x6c,0x65,0x46,0x3a,0x0a,0x40,0x77,0x61,0x69,0x74,0x54,0x3a,0x0a,0x40,0x6c,0x69,0x73,0x74,0x5b,0x0a,0x6f,0x3a,0x15,0x52,0x50,0x47,0x3a,0x3a,0x4d,0x6f,0x76,0x65,0x43,0x6f,0x6d,0x6d,0x61,0x6e,0x64,0x07,0x3a,0x0a,0x40,0x63,0x6f,0x64,0x65,0x69,0x06,0x3a,0x10,0x40,0x70,0x61,0x72,0x61,0x6d,0x65,0x74,0x65,0x72,0x73,0x5b,0x00,0x6f,0x3b,0x0a,0x07,0x3b,0x0b,0x69,0x06,0x3b,0x0c,0x5b,0x00,0x6f,0x3b,0x0a,0x07,0x3b,0x0b,0x69,0x06,0x3b,0x0c,0x5b,0x00,0x6f,0x3b,0x0a,0x07,0x3b,0x0b,0x69,0x16,0x3b,0x0c,0x5b,0x00,0x6f,0x3b,0x0a,0x07,0x3b,0x0b,0x69,0x00,0x3b,0x0c,0x5b,0x00))
  Wait(60)
  205(34,bytes(0x04,0x08,0x6f,0x3a,0x13,0x52,0x50,0x47,0x3a,0x3a,0x4d,0x6f,0x76,0x65,0x52,0x6f,0x75,0x74,0x65,0x09,0x3a,0x0c,0x40,0x72,0x65,0x70,0x65,0x61,0x74,0x46,0x3a,0x0f,0x40,0x73,0x6b,0x69,0x70,0x70,0x61,0x62,0x6c,0x65,0x54,0x3a,0x0a,0x40,0x77,0x61,0x69,0x74,0x46,0x3a,0x0a,0x40,0x6c,0x69,0x73,0x74,0x5b,0x0a,0x6f,0x3a,0x15,0x52,0x50,0x47,0x3a,0x3a,0x4d,0x6f,0x76,0x65,0x43,0x6f,0x6d,0x6d,0x61,0x6e,0x64,0x07,0x3a,0x0a,0x40,0x63,0x6f,0x64,0x65,0x69,0x09,0x3a,0x10,0x40,0x70,0x61,0x72,0x61,0x6d,0x65,0x74,0x65,0x72,0x73,0x5b,0x00,0x6f,0x3b,0x0a,0x07,0x3b,0x0b,0x69,0x09,0x3b,0x0c,0x5b,0x00,0x6f,0x3b,0x0a,0x07,0x3b,0x0b,0x69,0x09,0x3b,0x0c,0x5b,0x00,0x6f,0x3b,0x0a,0x07,0x3b,0x0b,0x69,0x16,0x3b,0x0c,0x5b,0x00,0x6f,0x3b,0x0a,0x07,0x3b,0x0b,0x69,0x00,0x3b,0x0c,0x5b,0x00))
  ShowMessageFace("kunoitielf2_fc2",1,0,2,4)
  ShowMessage("\\n<エルフ側近>姫は「お会いできて光栄だ」と仰せです。")
  ShowMessageFace("ruka_fc1",0,0,2,5)
  ShowMessage("\\n<Luka>は、はい……どうも……")
  If(0,4,0)
   ShowMessageFace("alice_fc5",5,0,2,6)
   ShowMessage("\\n<Alice>屏風の陰から出てきたらどうだ……？")
   0()
  EndIf()
  If(0,5,0)
   ShowMessageFace("iriasu_fc4",2,0,2,7)
   ShowMessage("\\n<Ilias>屏風の陰から出てきてはどうです……？")
   0()
  EndIf()
  ShowMessageFace("elfhime_fc1",0,0,2,8)
  ShowMessage("\\n<エルフ姫>......")
  ChangeVariable(11,11,0,3,5,34,1)
  If(1,11,0,29,5)
   TeleportEvent(34,0,46,29,4)
   0()
  EndIf()
  205(34,bytes(0x04,0x08,0x6f,0x3a,0x13,0x52,0x50,0x47,0x3a,0x3a,0x4d,0x6f,0x76,0x65,0x52,0x6f,0x75,0x74,0x65,0x09,0x3a,0x0c,0x40,0x72,0x65,0x70,0x65,0x61,0x74,0x46,0x3a,0x0f,0x40,0x73,0x6b,0x69,0x70,0x70,0x61,0x62,0x6c,0x65,0x46,0x3a,0x0a,0x40,0x77,0x61,0x69,0x74,0x54,0x3a,0x0a,0x40,0x6c,0x69,0x73,0x74,0x5b,0x0a,0x6f,0x3a,0x15,0x52,0x50,0x47,0x3a,0x3a,0x4d,0x6f,0x76,0x65,0x43,0x6f,0x6d,0x6d,0x61,0x6e,0x64,0x07,0x3a,0x0a,0x40,0x63,0x6f,0x64,0x65,0x69,0x06,0x3a,0x10,0x40,0x70,0x61,0x72,0x61,0x6d,0x65,0x74,0x65,0x72,0x73,0x5b,0x00,0x6f,0x3b,0x0a,0x07,0x3b,0x0b,0x69,0x06,0x3b,0x0c,0x5b,0x00,0x6f,0x3b,0x0a,0x07,0x3b,0x0b,0x69,0x06,0x3b,0x0c,0x5b,0x00,0x6f,0x3b,0x0a,0x07,0x3b,0x0b,0x69,0x16,0x3b,0x0c,0x5b,0x00,0x6f,0x3b,0x0a,0x07,0x3b,0x0b,0x69,0x00,0x3b,0x0c,0x5b,0x00))
  Wait(60)
  205(34,bytes(0x04,0x08,0x6f,0x3a,0x13,0x52,0x50,0x47,0x3a,0x3a,0x4d,0x6f,0x76,0x65,0x52,0x6f,0x75,0x74,0x65,0x09,0x3a,0x0c,0x40,0x72,0x65,0x70,0x65,0x61,0x74,0x46,0x3a,0x0f,0x40,0x73,0x6b,0x69,0x70,0x70,0x61,0x62,0x6c,0x65,0x54,0x3a,0x0a,0x40,0x77,0x61,0x69,0x74,0x46,0x3a,0x0a,0x40,0x6c,0x69,0x73,0x74,0x5b,0x0a,0x6f,0x3a,0x15,0x52,0x50,0x47,0x3a,0x3a,0x4d,0x6f,0x76,0x65,0x43,0x6f,0x6d,0x6d,0x61,0x6e,0x64,0x07,0x3a,0x0a,0x40,0x63,0x6f,0x64,0x65,0x69,0x09,0x3a,0x10,0x40,0x70,0x61,0x72,0x61,0x6d,0x65,0x74,0x65,0x72,0x73,0x5b,0x00,0x6f,0x3b,0x0a,0x07,0x3b,0x0b,0x69,0x09,0x3b,0x0c,0x5b,0x00,0x6f,0x3b,0x0a,0x07,0x3b,0x0b,0x69,0x09,0x3b,0x0c,0x5b,0x00,0x6f,0x3b,0x0a,0x07,0x3b,0x0b,0x69,0x16,0x3b,0x0c,0x5b,0x00,0x6f,0x3b,0x0a,0x07,0x3b,0x0b,0x69,0x00,0x3b,0x0c,0x5b,0x00))
  ShowMessageFace("kunoitielf2_fc2",1,0,2,9)
  ShowMessage("\\n<エルフ側近>「とてもあなたを気に入った」と、姫は仰せです。")
  ShowMessageFace("ruka_fc1",0,0,2,10)
  ShowMessage("\\n<Luka>それは……光栄です……")
  ShowMessageFace("elfhime_fc1",0,0,2,11)
  ShowMessage("\\n<エルフ姫>......")
  ChangeVariable(11,11,0,3,5,34,1)
  If(1,11,0,29,5)
   TeleportEvent(34,0,46,29,4)
   0()
  EndIf()
  205(34,bytes(0x04,0x08,0x6f,0x3a,0x13,0x52,0x50,0x47,0x3a,0x3a,0x4d,0x6f,0x76,0x65,0x52,0x6f,0x75,0x74,0x65,0x09,0x3a,0x0c,0x40,0x72,0x65,0x70,0x65,0x61,0x74,0x46,0x3a,0x0f,0x40,0x73,0x6b,0x69,0x70,0x70,0x61,0x62,0x6c,0x65,0x46,0x3a,0x0a,0x40,0x77,0x61,0x69,0x74,0x54,0x3a,0x0a,0x40,0x6c,0x69,0x73,0x74,0x5b,0x0a,0x6f,0x3a,0x15,0x52,0x50,0x47,0x3a,0x3a,0x4d,0x6f,0x76,0x65,0x43,0x6f,0x6d,0x6d,0x61,0x6e,0x64,0x07,0x3a,0x0a,0x40,0x63,0x6f,0x64,0x65,0x69,0x06,0x3a,0x10,0x40,0x70,0x61,0x72,0x61,0x6d,0x65,0x74,0x65,0x72,0x73,0x5b,0x00,0x6f,0x3b,0x0a,0x07,0x3b,0x0b,0x69,0x06,0x3b,0x0c,0x5b,0x00,0x6f,0x3b,0x0a,0x07,0x3b,0x0b,0x69,0x06,0x3b,0x0c,0x5b,0x00,0x6f,0x3b,0x0a,0x07,0x3b,0x0b,0x69,0x16,0x3b,0x0c,0x5b,0x00,0x6f,0x3b,0x0a,0x07,0x3b,0x0b,0x69,0x00,0x3b,0x0c,0x5b,0x00))
  Wait(60)
  205(34,bytes(0x04,0x08,0x6f,0x3a,0x13,0x52,0x50,0x47,0x3a,0x3a,0x4d,0x6f,0x76,0x65,0x52,0x6f,0x75,0x74,0x65,0x09,0x3a,0x0c,0x40,0x72,0x65,0x70,0x65,0x61,0x74,0x46,0x3a,0x0f,0x40,0x73,0x6b,0x69,0x70,0x70,0x61,0x62,0x6c,0x65,0x54,0x3a,0x0a,0x40,0x77,0x61,0x69,0x74,0x46,0x3a,0x0a,0x40,0x6c,0x69,0x73,0x74,0x5b,0x0a,0x6f,0x3a,0x15,0x52,0x50,0x47,0x3a,0x3a,0x4d,0x6f,0x76,0x65,0x43,0x6f,0x6d,0x6d,0x61,0x6e,0x64,0x07,0x3a,0x0a,0x40,0x63,0x6f,0x64,0x65,0x69,0x09,0x3a,0x10,0x40,0x70,0x61,0x72,0x61,0x6d,0x65,0x74,0x65,0x72,0x73,0x5b,0x00,0x6f,0x3b,0x0a,0x07,0x3b,0x0b,0x69,0x09,0x3b,0x0c,0x5b,0x00,0x6f,0x3b,0x0a,0x07,0x3b,0x0b,0x69,0x09,0x3b,0x0c,0x5b,0x00,0x6f,0x3b,0x0a,0x07,0x3b,0x0b,0x69,0x16,0x3b,0x0c,0x5b,0x00,0x6f,0x3b,0x0a,0x07,0x3b,0x0b,0x69,0x00,0x3b,0x0c,0x5b,0x00))
  ShowMessageFace("kunoitielf2_fc2",1,0,2,12)
  ShowMessage("\\n<エルフ側近>姫は「お近づきの証にこれを」と仰せです。")
  ShowMessage("どうぞ、お受け取りを……")
  250(bytes(0x04,0x08,0x6f,0x3a,0x0c,0x52,0x50,0x47,0x3a,0x3a,0x53,0x45,0x08,0x3a,0x0a,0x40,0x6e,0x61,0x6d,0x65,0x49,0x22,0x0a,0x49,0x74,0x65,0x6d,0x31,0x06,0x3a,0x06,0x45,0x54,0x3a,0x0b,0x40,0x70,0x69,0x74,0x63,0x68,0x69,0x69,0x3a,0x0c,0x40,0x76,0x6f,0x6c,0x75,0x6d,0x65,0x69,0x55))
  ChangeInventory_Item(537,0,0,1)
  If(0,6,0)
   ShowMessageFace("sonia_fc2",2,0,2,13)
   ShowMessage("\\n<Sonya>ちょっと、こんな簡単にもらっていいの……？")
   0()
  Else()
   ShowMessageFace("ruka_fc1",0,0,2,14)
   ShowMessage("\\n<Luka>こんなに簡単にもらっていいの……？")
   0()
  EndIf()
  ChangeVariable(11,11,0,3,5,34,1)
  If(1,11,0,29,5)
   TeleportEvent(34,0,46,29,4)
   0()
  EndIf()
  205(34,bytes(0x04,0x08,0x6f,0x3a,0x13,0x52,0x50,0x47,0x3a,0x3a,0x4d,0x6f,0x76,0x65,0x52,0x6f,0x75,0x74,0x65,0x09,0x3a,0x0c,0x40,0x72,0x65,0x70,0x65,0x61,0x74,0x46,0x3a,0x0f,0x40,0x73,0x6b,0x69,0x70,0x70,0x61,0x62,0x6c,0x65,0x46,0x3a,0x0a,0x40,0x77,0x61,0x69,0x74,0x54,0x3a,0x0a,0x40,0x6c,0x69,0x73,0x74,0x5b,0x0a,0x6f,0x3a,0x15,0x52,0x50,0x47,0x3a,0x3a,0x4d,0x6f,0x76,0x65,0x43,0x6f,0x6d,0x6d,0x61,0x6e,0x64,0x07,0x3a,0x0a,0x40,0x63,0x6f,0x64,0x65,0x69,0x06,0x3a,0x10,0x40,0x70,0x61,0x72,0x61,0x6d,0x65,0x74,0x65,0x72,0x73,0x5b,0x00,0x6f,0x3b,0x0a,0x07,0x3b,0x0b,0x69,0x06,0x3b,0x0c,0x5b,0x00,0x6f,0x3b,0x0a,0x07,0x3b,0x0b,0x69,0x06,0x3b,0x0c,0x5b,0x00,0x6f,0x3b,0x0a,0x07,0x3b,0x0b,0x69,0x16,0x3b,0x0c,0x5b,0x00,0x6f,0x3b,0x0a,0x07,0x3b,0x0b,0x69,0x00,0x3b,0x0c,0x5b,0x00))
  Wait(60)
  205(34,bytes(0x04,0x08,0x6f,0x3a,0x13,0x52,0x50,0x47,0x3a,0x3a,0x4d,0x6f,0x76,0x65,0x52,0x6f,0x75,0x74,0x65,0x09,0x3a,0x0c,0x40,0x72,0x65,0x70,0x65,0x61,0x74,0x46,0x3a,0x0f,0x40,0x73,0x6b,0x69,0x70,0x70,0x61,0x62,0x6c,0x65,0x54,0x3a,0x0a,0x40,0x77,0x61,0x69,0x74,0x46,0x3a,0x0a,0x40,0x6c,0x69,0x73,0x74,0x5b,0x0a,0x6f,0x3a,0x15,0x52,0x50,0x47,0x3a,0x3a,0x4d,0x6f,0x76,0x65,0x43,0x6f,0x6d,0x6d,0x61,0x6e,0x64,0x07,0x3a,0x0a,0x40,0x63,0x6f,0x64,0x65,0x69,0x09,0x3a,0x10,0x40,0x70,0x61,0x72,0x61,0x6d,0x65,0x74,0x65,0x72,0x73,0x5b,0x00,0x6f,0x3b,0x0a,0x07,0x3b,0x0b,0x69,0x09,0x3b,0x0c,0x5b,0x00,0x6f,0x3b,0x0a,0x07,0x3b,0x0b,0x69,0x09,0x3b,0x0c,0x5b,0x00,0x6f,0x3b,0x0a,0x07,0x3b,0x0b,0x69,0x16,0x3b,0x0c,0x5b,0x00,0x6f,0x3b,0x0a,0x07,0x3b,0x0b,0x69,0x00,0x3b,0x0c,0x5b,0x00))
  ShowMessageFace("kunoitielf2_fc2",1,0,2,15)
  ShowMessage("\\n<エルフ側近>並びに姫は、里に伝わる秘宝を送られるそうです。")
  ShowMessage("伝説の七刀にも数えられし名刀「夢幻」、お受け取り下さい。")
  250(bytes(0x04,0x08,0x6f,0x3a,0x0c,0x52,0x50,0x47,0x3a,0x3a,0x53,0x45,0x08,0x3a,0x0a,0x40,0x6e,0x61,0x6d,0x65,0x49,0x22,0x0a,0x49,0x74,0x65,0x6d,0x31,0x06,0x3a,0x06,0x45,0x54,0x3a,0x0b,0x40,0x70,0x69,0x74,0x63,0x68,0x69,0x69,0x3a,0x0c,0x40,0x76,0x6f,0x6c,0x75,0x6d,0x65,0x69,0x55))
  ChangeInventoryWeapon(255,0,0,1,false)
  If(0,6,0)
   ShowMessageFace("sonia_fc2",3,0,2,16)
   ShowMessage("\\n<Sonya>えっ？　これ、逆にまずいんじゃない……？")
   0()
  Else()
   ShowMessageFace("ruka_fc1",0,0,2,17)
   ShowMessage("\\n<Luka>これ、もらいすぎじゃ……")
   0()
  EndIf()
  ChangeVariable(11,11,0,3,5,34,1)
  If(1,11,0,29,5)
   TeleportEvent(34,0,46,29,4)
   0()
  EndIf()
  205(34,bytes(0x04,0x08,0x6f,0x3a,0x13,0x52,0x50,0x47,0x3a,0x3a,0x4d,0x6f,0x76,0x65,0x52,0x6f,0x75,0x74,0x65,0x09,0x3a,0x0c,0x40,0x72,0x65,0x70,0x65,0x61,0x74,0x46,0x3a,0x0f,0x40,0x73,0x6b,0x69,0x70,0x70,0x61,0x62,0x6c,0x65,0x46,0x3a,0x0a,0x40,0x77,0x61,0x69,0x74,0x54,0x3a,0x0a,0x40,0x6c,0x69,0x73,0x74,0x5b,0x0a,0x6f,0x3a,0x15,0x52,0x50,0x47,0x3a,0x3a,0x4d,0x6f,0x76,0x65,0x43,0x6f,0x6d,0x6d,0x61,0x6e,0x64,0x07,0x3a,0x0a,0x40,0x63,0x6f,0x64,0x65,0x69,0x06,0x3a,0x10,0x40,0x70,0x61,0x72,0x61,0x6d,0x65,0x74,0x65,0x72,0x73,0x5b,0x00,0x6f,0x3b,0x0a,0x07,0x3b,0x0b,0x69,0x06,0x3b,0x0c,0x5b,0x00,0x6f,0x3b,0x0a,0x07,0x3b,0x0b,0x69,0x06,0x3b,0x0c,0x5b,0x00,0x6f,0x3b,0x0a,0x07,0x3b,0x0b,0x69,0x16,0x3b,0x0c,0x5b,0x00,0x6f,0x3b,0x0a,0x07,0x3b,0x0b,0x69,0x00,0x3b,0x0c,0x5b,0x00))
  Wait(60)
  205(34,bytes(0x04,0x08,0x6f,0x3a,0x13,0x52,0x50,0x47,0x3a,0x3a,0x4d,0x6f,0x76,0x65,0x52,0x6f,0x75,0x74,0x65,0x09,0x3a,0x0c,0x40,0x72,0x65,0x70,0x65,0x61,0x74,0x46,0x3a,0x0f,0x40,0x73,0x6b,0x69,0x70,0x70,0x61,0x62,0x6c,0x65,0x54,0x3a,0x0a,0x40,0x77,0x61,0x69,0x74,0x46,0x3a,0x0a,0x40,0x6c,0x69,0x73,0x74,0x5b,0x0a,0x6f,0x3a,0x15,0x52,0x50,0x47,0x3a,0x3a,0x4d,0x6f,0x76,0x65,0x43,0x6f,0x6d,0x6d,0x61,0x6e,0x64,0x07,0x3a,0x0a,0x40,0x63,0x6f,0x64,0x65,0x69,0x09,0x3a,0x10,0x40,0x70,0x61,0x72,0x61,0x6d,0x65,0x74,0x65,0x72,0x73,0x5b,0x00,0x6f,0x3b,0x0a,0x07,0x3b,0x0b,0x69,0x09,0x3b,0x0c,0x5b,0x00,0x6f,0x3b,0x0a,0x07,0x3b,0x0b,0x69,0x09,0x3b,0x0c,0x5b,0x00,0x6f,0x3b,0x0a,0x07,0x3b,0x0b,0x69,0x16,0x3b,0x0c,0x5b,0x00,0x6f,0x3b,0x0a,0x07,0x3b,0x0b,0x69,0x00,0x3b,0x0c,0x5b,0x00))
  ShowMessageFace("kunoitielf2_fc2",1,0,2,18)
  ShowMessage("\\n<エルフ側近>また、愛しいあなたにこの品を贈りたいとのこと。")
  ShowMessage("このアイテムがあれば、狩人系の最上級職に転職できます。")
  250(bytes(0x04,0x08,0x6f,0x3a,0x0c,0x52,0x50,0x47,0x3a,0x3a,0x53,0x45,0x08,0x3a,0x0a,0x40,0x6e,0x61,0x6d,0x65,0x49,0x22,0x0a,0x49,0x74,0x65,0x6d,0x31,0x06,0x3a,0x06,0x45,0x54,0x3a,0x0b,0x40,0x70,0x69,0x74,0x63,0x68,0x69,0x69,0x3a,0x0c,0x40,0x76,0x6f,0x6c,0x75,0x6d,0x65,0x69,0x55))
  ChangeSwitch(2311,2311,0)
  ChangeInventory_Item(627,0,0,1)
  If(0,6,0)
   ShowMessageFace("sonia_fc3",2,0,2,19)
   ShowMessage("\\n<Sonya>ちょ、ちょっと待って……！")
   0()
  Else()
   ShowMessageFace("ruka_fc1",0,0,2,20)
   ShowMessage("\\n<Luka>ちょ、ちょっと待って……！")
   0()
  EndIf()
  ShowMessageFace("elfhime_fc1",0,0,2,21)
  ShowMessage("\\n<エルフ姫>......")
  ChangeVariable(11,11,0,3,5,34,1)
  If(1,11,0,29,5)
   TeleportEvent(34,0,46,29,4)
   0()
  EndIf()
  205(34,bytes(0x04,0x08,0x6f,0x3a,0x13,0x52,0x50,0x47,0x3a,0x3a,0x4d,0x6f,0x76,0x65,0x52,0x6f,0x75,0x74,0x65,0x09,0x3a,0x0c,0x40,0x72,0x65,0x70,0x65,0x61,0x74,0x46,0x3a,0x0f,0x40,0x73,0x6b,0x69,0x70,0x70,0x61,0x62,0x6c,0x65,0x46,0x3a,0x0a,0x40,0x77,0x61,0x69,0x74,0x54,0x3a,0x0a,0x40,0x6c,0x69,0x73,0x74,0x5b,0x0a,0x6f,0x3a,0x15,0x52,0x50,0x47,0x3a,0x3a,0x4d,0x6f,0x76,0x65,0x43,0x6f,0x6d,0x6d,0x61,0x6e,0x64,0x07,0x3a,0x0a,0x40,0x63,0x6f,0x64,0x65,0x69,0x06,0x3a,0x10,0x40,0x70,0x61,0x72,0x61,0x6d,0x65,0x74,0x65,0x72,0x73,0x5b,0x00,0x6f,0x3b,0x0a,0x07,0x3b,0x0b,0x69,0x06,0x3b,0x0c,0x5b,0x00,0x6f,0x3b,0x0a,0x07,0x3b,0x0b,0x69,0x06,0x3b,0x0c,0x5b,0x00,0x6f,0x3b,0x0a,0x07,0x3b,0x0b,0x69,0x16,0x3b,0x0c,0x5b,0x00,0x6f,0x3b,0x0a,0x07,0x3b,0x0b,0x69,0x00,0x3b,0x0c,0x5b,0x00))
  Wait(60)
  205(34,bytes(0x04,0x08,0x6f,0x3a,0x13,0x52,0x50,0x47,0x3a,0x3a,0x4d,0x6f,0x76,0x65,0x52,0x6f,0x75,0x74,0x65,0x09,0x3a,0x0c,0x40,0x72,0x65,0x70,0x65,0x61,0x74,0x46,0x3a,0x0f,0x40,0x73,0x6b,0x69,0x70,0x70,0x61,0x62,0x6c,0x65,0x54,0x3a,0x0a,0x40,0x77,0x61,0x69,0x74,0x46,0x3a,0x0a,0x40,0x6c,0x69,0x73,0x74,0x5b,0x0a,0x6f,0x3a,0x15,0x52,0x50,0x47,0x3a,0x3a,0x4d,0x6f,0x76,0x65,0x43,0x6f,0x6d,0x6d,0x61,0x6e,0x64,0x07,0x3a,0x0a,0x40,0x63,0x6f,0x64,0x65,0x69,0x09,0x3a,0x10,0x40,0x70,0x61,0x72,0x61,0x6d,0x65,0x74,0x65,0x72,0x73,0x5b,0x00,0x6f,0x3b,0x0a,0x07,0x3b,0x0b,0x69,0x09,0x3b,0x0c,0x5b,0x00,0x6f,0x3b,0x0a,0x07,0x3b,0x0b,0x69,0x09,0x3b,0x0c,0x5b,0x00,0x6f,0x3b,0x0a,0x07,0x3b,0x0b,0x69,0x16,0x3b,0x0c,0x5b,0x00,0x6f,0x3b,0x0a,0x07,0x3b,0x0b,0x69,0x00,0x3b,0x0c,0x5b,0x00))
  ShowMessageFace("kunoitielf2_fc2",1,0,2,22)
  ShowMessage("\\n<エルフ側近>さらに姫は、以下の品をお送りになられるようです。")
  ShowMessage("あなた様の旅のお役に立てば本望……とのこと。")
  250(bytes(0x04,0x08,0x6f,0x3a,0x0c,0x52,0x50,0x47,0x3a,0x3a,0x53,0x45,0x08,0x3a,0x0a,0x40,0x6e,0x61,0x6d,0x65,0x49,0x22,0x0a,0x49,0x74,0x65,0x6d,0x31,0x06,0x3a,0x06,0x45,0x54,0x3a,0x0b,0x40,0x70,0x69,0x74,0x63,0x68,0x69,0x69,0x3a,0x0c,0x40,0x76,0x6f,0x6c,0x75,0x6d,0x65,0x69,0x55))
  ChangeInventoryWeapon(274,0,0,1)
  ChangeInventoryWeapon(744,0,0,1,false)
  ChangeInventoryArmor(140,0,0,1,false)
  ChangeInventoryArmor(268,0,0,1,false)
  ChangeInventoryArmor(1295,0,0,1,false)
  ChangeInventoryArmor(1298,0,0,1)
  If(0,6,0)
   ShowMessageFace("sonia_fc3",2,0,2,23)
   ShowMessage("\\n<Sonya>これやばい！　絶対やばい！")
   0()
  Else()
   ShowMessageFace("ruka_fc1",0,0,2,24)
   ShowMessage("\\n<Luka>こんなにもらうと、逆に困るよ……！")
   0()
  EndIf()
  If(0,4,0)
   ShowMessageFace("alice_fc5",6,0,2,25)
   ShowMessage("\\n<Alice>おいおい、待て待て！")
   ShowMessage("これは間違いなく、愛が重いぞ！")
   0()
  EndIf()
  If(0,5,0)
   ShowMessageFace("iriasu_fc4",5,0,2,26)
   ShowMessage("\\n<Ilias>ちょっと待ちなさい！")
   ShowMessage("これは愛が重いですよ！")
   0()
  EndIf()
  ShowMessageFace("elfhime_fc1",0,0,2,27)
  ShowMessage("\\n<エルフ姫>......")
  ChangeVariable(11,11,0,3,5,34,1)
  If(1,11,0,29,5)
   TeleportEvent(34,0,46,29,4)
   0()
  EndIf()
  205(34,bytes(0x04,0x08,0x6f,0x3a,0x13,0x52,0x50,0x47,0x3a,0x3a,0x4d,0x6f,0x76,0x65,0x52,0x6f,0x75,0x74,0x65,0x09,0x3a,0x0c,0x40,0x72,0x65,0x70,0x65,0x61,0x74,0x46,0x3a,0x0f,0x40,0x73,0x6b,0x69,0x70,0x70,0x61,0x62,0x6c,0x65,0x46,0x3a,0x0a,0x40,0x77,0x61,0x69,0x74,0x54,0x3a,0x0a,0x40,0x6c,0x69,0x73,0x74,0x5b,0x0a,0x6f,0x3a,0x15,0x52,0x50,0x47,0x3a,0x3a,0x4d,0x6f,0x76,0x65,0x43,0x6f,0x6d,0x6d,0x61,0x6e,0x64,0x07,0x3a,0x0a,0x40,0x63,0x6f,0x64,0x65,0x69,0x06,0x3a,0x10,0x40,0x70,0x61,0x72,0x61,0x6d,0x65,0x74,0x65,0x72,0x73,0x5b,0x00,0x6f,0x3b,0x0a,0x07,0x3b,0x0b,0x69,0x06,0x3b,0x0c,0x5b,0x00,0x6f,0x3b,0x0a,0x07,0x3b,0x0b,0x69,0x06,0x3b,0x0c,0x5b,0x00,0x6f,0x3b,0x0a,0x07,0x3b,0x0b,0x69,0x16,0x3b,0x0c,0x5b,0x00,0x6f,0x3b,0x0a,0x07,0x3b,0x0b,0x69,0x00,0x3b,0x0c,0x5b,0x00))
  Wait(60)
  205(34,bytes(0x04,0x08,0x6f,0x3a,0x13,0x52,0x50,0x47,0x3a,0x3a,0x4d,0x6f,0x76,0x65,0x52,0x6f,0x75,0x74,0x65,0x09,0x3a,0x0c,0x40,0x72,0x65,0x70,0x65,0x61,0x74,0x46,0x3a,0x0f,0x40,0x73,0x6b,0x69,0x70,0x70,0x61,0x62,0x6c,0x65,0x54,0x3a,0x0a,0x40,0x77,0x61,0x69,0x74,0x46,0x3a,0x0a,0x40,0x6c,0x69,0x73,0x74,0x5b,0x0a,0x6f,0x3a,0x15,0x52,0x50,0x47,0x3a,0x3a,0x4d,0x6f,0x76,0x65,0x43,0x6f,0x6d,0x6d,0x61,0x6e,0x64,0x07,0x3a,0x0a,0x40,0x63,0x6f,0x64,0x65,0x69,0x09,0x3a,0x10,0x40,0x70,0x61,0x72,0x61,0x6d,0x65,0x74,0x65,0x72,0x73,0x5b,0x00,0x6f,0x3b,0x0a,0x07,0x3b,0x0b,0x69,0x09,0x3b,0x0c,0x5b,0x00,0x6f,0x3b,0x0a,0x07,0x3b,0x0b,0x69,0x09,0x3b,0x0c,0x5b,0x00,0x6f,0x3b,0x0a,0x07,0x3b,0x0b,0x69,0x16,0x3b,0x0c,0x5b,0x00,0x6f,0x3b,0x0a,0x07,0x3b,0x0b,0x69,0x00,0x3b,0x0c,0x5b,0x00))
  ShowMessageFace("kunoitielf2_fc2",1,0,2,28)
  ShowMessage("\\n<エルフ側近>「気にする事はない、意中の殿方に尽くすのは当然」……")
  ShowMessage("……との事です。")
  If(0,6,0)
   ShowMessageFace("sonia_fc3",2,0,2,29)
   ShowMessage("\\n<Sonya>これはダメでしょ！　大ピンチでしょ！")
   ShowMessage("ルカ、いつもの言い寄られた時のアレの出番よ！")
   ShowMessageFace("ruka_fc1",0,0,2,30)
   ShowMessage("\\n<Luka>えっと、まだ知り合って間もないし……")
   ShowMessage("まずは文通から始めようよ……")
   0()
  Else()
   ShowMessageFace("ruka_fc1",0,0,2,31)
   ShowMessage("\\n<Luka>えっと、まだ知り合って間もないし……")
   ShowMessage("まずは文通から始めようよ……")
   0()
  EndIf()
  If(0,4,0)
   ShowMessageFace("alice_fc5",5,0,2,32)
   ShowMessage("\\n<Alice>文通って……")
   ShowMessage("いつの時代の人間なのだ、貴様は……")
   0()
  EndIf()
  If(0,5,0)
   ShowMessageFace("iriasu_fc4",2,0,2,33)
   ShowMessage("\\n<Ilias>文通って……")
   ShowMessage("大正の女学生ですか、あなたは。")
   0()
  EndIf()
  ShowMessageFace("elfhime_fc1",0,0,2,34)
  ShowMessage("\\n<エルフ姫>......")
  ChangeVariable(11,11,0,3,5,34,1)
  If(1,11,0,29,5)
   TeleportEvent(34,0,46,29,4)
   0()
  EndIf()
  205(34,bytes(0x04,0x08,0x6f,0x3a,0x13,0x52,0x50,0x47,0x3a,0x3a,0x4d,0x6f,0x76,0x65,0x52,0x6f,0x75,0x74,0x65,0x09,0x3a,0x0c,0x40,0x72,0x65,0x70,0x65,0x61,0x74,0x46,0x3a,0x0f,0x40,0x73,0x6b,0x69,0x70,0x70,0x61,0x62,0x6c,0x65,0x46,0x3a,0x0a,0x40,0x77,0x61,0x69,0x74,0x54,0x3a,0x0a,0x40,0x6c,0x69,0x73,0x74,0x5b,0x0a,0x6f,0x3a,0x15,0x52,0x50,0x47,0x3a,0x3a,0x4d,0x6f,0x76,0x65,0x43,0x6f,0x6d,0x6d,0x61,0x6e,0x64,0x07,0x3a,0x0a,0x40,0x63,0x6f,0x64,0x65,0x69,0x06,0x3a,0x10,0x40,0x70,0x61,0x72,0x61,0x6d,0x65,0x74,0x65,0x72,0x73,0x5b,0x00,0x6f,0x3b,0x0a,0x07,0x3b,0x0b,0x69,0x06,0x3b,0x0c,0x5b,0x00,0x6f,0x3b,0x0a,0x07,0x3b,0x0b,0x69,0x06,0x3b,0x0c,0x5b,0x00,0x6f,0x3b,0x0a,0x07,0x3b,0x0b,0x69,0x16,0x3b,0x0c,0x5b,0x00,0x6f,0x3b,0x0a,0x07,0x3b,0x0b,0x69,0x00,0x3b,0x0c,0x5b,0x00))
  Wait(60)
  205(34,bytes(0x04,0x08,0x6f,0x3a,0x13,0x52,0x50,0x47,0x3a,0x3a,0x4d,0x6f,0x76,0x65,0x52,0x6f,0x75,0x74,0x65,0x09,0x3a,0x0c,0x40,0x72,0x65,0x70,0x65,0x61,0x74,0x46,0x3a,0x0f,0x40,0x73,0x6b,0x69,0x70,0x70,0x61,0x62,0x6c,0x65,0x54,0x3a,0x0a,0x40,0x77,0x61,0x69,0x74,0x46,0x3a,0x0a,0x40,0x6c,0x69,0x73,0x74,0x5b,0x0a,0x6f,0x3a,0x15,0x52,0x50,0x47,0x3a,0x3a,0x4d,0x6f,0x76,0x65,0x43,0x6f,0x6d,0x6d,0x61,0x6e,0x64,0x07,0x3a,0x0a,0x40,0x63,0x6f,0x64,0x65,0x69,0x09,0x3a,0x10,0x40,0x70,0x61,0x72,0x61,0x6d,0x65,0x74,0x65,0x72,0x73,0x5b,0x00,0x6f,0x3b,0x0a,0x07,0x3b,0x0b,0x69,0x09,0x3b,0x0c,0x5b,0x00,0x6f,0x3b,0x0a,0x07,0x3b,0x0b,0x69,0x09,0x3b,0x0c,0x5b,0x00,0x6f,0x3b,0x0a,0x07,0x3b,0x0b,0x69,0x16,0x3b,0x0c,0x5b,0x00,0x6f,0x3b,0x0a,0x07,0x3b,0x0b,0x69,0x00,0x3b,0x0c,0x5b,0x00))
  ShowMessageFace("kunoitielf2_fc2",1,0,2,35)
  ShowMessage("\\n<エルフ側近>姫はご承諾されたようです。")
  ShowMessage("「今夜、さっそく手紙を送る」と仰せです。")
  ShowMessageFace("kunoitielf2_fc2",1,0,2,36)
  ShowMessage("\\n<エルフ側近>そして、結婚式の事ですが……")
  ShowMessage("姫は「神社でも教会でも構わない」との事です。")
  If(0,6,0)
   205(35,bytes(0x04,0x08,0x6f,0x3a,0x13,0x52,0x50,0x47,0x3a,0x3a,0x4d,0x6f,0x76,0x65,0x52,0x6f,0x75,0x74,0x65,0x09,0x3a,0x0c,0x40,0x72,0x65,0x70,0x65,0x61,0x74,0x46,0x3a,0x0f,0x40,0x73,0x6b,0x69,0x70,0x70,0x61,0x62,0x6c,0x65,0x46,0x3a,0x0a,0x40,0x77,0x61,0x69,0x74,0x54,0x3a,0x0a,0x40,0x6c,0x69,0x73,0x74,0x5b,0x12,0x6f,0x3a,0x15,0x52,0x50,0x47,0x3a,0x3a,0x4d,0x6f,0x76,0x65,0x43,0x6f,0x6d,0x6d,0x61,0x6e,0x64,0x07,0x3a,0x0a,0x40,0x63,0x6f,0x64,0x65,0x69,0x22,0x3a,0x10,0x40,0x70,0x61,0x72,0x61,0x6d,0x65,0x74,0x65,0x72,0x73,0x5b,0x06,0x69,0x0b,0x6f,0x3b,0x0a,0x07,0x3b,0x0b,0x69,0x23,0x3b,0x0c,0x5b,0x06,0x69,0x09,0x6f,0x3b,0x0a,0x07,0x3b,0x0b,0x69,0x07,0x3b,0x0c,0x5b,0x00,0x6f,0x3b,0x0a,0x07,0x3b,0x0b,0x69,0x07,0x3b,0x0c,0x5b,0x00,0x6f,0x3b,0x0a,0x07,0x3b,0x0b,0x69,0x09,0x3b,0x0c,0x5b,0x00,0x6f,0x3b,0x0a,0x07,0x3b,0x0b,0x69,0x09,0x3b,0x0c,0x5b,0x00,0x6f,0x3b,0x0a,0x07,0x3b,0x0b,0x69,0x09,0x3b,0x0c,0x5b,0x00,0x6f,0x3b,0x0a,0x07,0x3b,0x0b,0x69,0x08,0x3b,0x0c,0x5b,0x00,0x6f,0x3b,0x0a,0x07,0x3b,0x0b,0x69,0x08,0x3b,0x0c,0x5b,0x00,0x6f,0x3b,0x0a,0x07,0x3b,0x0b,0x69,0x08,0x3b,0x0c,0x5b,0x00,0x6f,0x3b,0x0a,0x07,0x3b,0x0b,0x69,0x08,0x3b,0x0c,0x5b,0x00,0x6f,0x3b,0x0a,0x07,0x3b,0x0b,0x69,0x08,0x3b,0x0c,0x5b,0x00,0x6f,0x3b,0x0a,0x07,0x3b,0x0b,0x69,0x00,0x3b,0x0c,0x5b,0x00))
   205(31,bytes(0x04,0x08,0x6f,0x3a,0x13,0x52,0x50,0x47,0x3a,0x3a,0x4d,0x6f,0x76,0x65,0x52,0x6f,0x75,0x74,0x65,0x09,0x3a,0x0c,0x40,0x72,0x65,0x70,0x65,0x61,0x74,0x46,0x3a,0x0f,0x40,0x73,0x6b,0x69,0x70,0x70,0x61,0x62,0x6c,0x65,0x46,0x3a,0x0a,0x40,0x77,0x61,0x69,0x74,0x54,0x3a,0x0a,0x40,0x6c,0x69,0x73,0x74,0x5b,0x07,0x6f,0x3a,0x15,0x52,0x50,0x47,0x3a,0x3a,0x4d,0x6f,0x76,0x65,0x43,0x6f,0x6d,0x6d,0x61,0x6e,0x64,0x07,0x3a,0x0a,0x40,0x63,0x6f,0x64,0x65,0x69,0x16,0x3a,0x10,0x40,0x70,0x61,0x72,0x61,0x6d,0x65,0x74,0x65,0x72,0x73,0x5b,0x00,0x6f,0x3b,0x0a,0x07,0x3b,0x0b,0x69,0x00,0x3b,0x0c,0x5b,0x00))
   ShowSpeechBalloon(31,1,false)
   ShowMessageFace("sonia_fc2",5,0,2,37)
   ShowMessage("\\n<Sonya>ルカは「距離感の読めない女は迷惑だ」との事ですっ！！")
   Wait(60)
   PictureDisplay(5,"80_elfhime_st03",0,0,0,0,100,100,0,0)
   PictureMove(5,null,0,0,0,0,100,100,255,0,60,true)
   ShowMessageFace("elfhime_fc1",2,0,2,38)
   ShowMessage("\\n<エルフ姫>......")
   ShowMessageFace("elfhime_fc1",2,0,2,39)
   ShowMessage("\\n<エルフ姫>なんなの、おにこんぼう娘……野蛮……")
   ShowMessageFace("sonia_fc2",6,0,2,40)
   ShowMessage("\\n<Sonya>キィィィ～～！！")
   0()
  Else()
   ShowMessageFace("ruka_fc1",0,0,2,41)
   ShowMessage("\\n<Luka>......")
   0()
  EndIf()
  PictureClear(5)
  Wait(60)
  221()
  241(bytes(0x04,0x08,0x6f,0x3a,0x0d,0x52,0x50,0x47,0x3a,0x3a,0x42,0x47,0x4d,0x08,0x3a,0x0a,0x40,0x6e,0x61,0x6d,0x65,0x49,0x22,0x0c,0x62,0x61,0x74,0x74,0x6c,0x65,0x32,0x06,0x3a,0x06,0x45,0x54,0x3a,0x0c,0x40,0x76,0x6f,0x6c,0x75,0x6d,0x65,0x69,0x69,0x3a,0x0b,0x40,0x70,0x69,0x74,0x63,0x68,0x69,0x69))
  Wait(120)
  ShowMessageFace("",0,0,2,42)
  ShowMessage("エルフ姫との会談は、円滑に進んだ……")
  216(0)
  ChangeVariable(1081,1081,0,0,4)
  ChangeSwitch(31,31,1)
  Wait(60)
  241(bytes(0x04,0x08,0x6f,0x3a,0x0d,0x52,0x50,0x47,0x3a,0x3a,0x42,0x47,0x4d,0x08,0x3a,0x0a,0x40,0x6e,0x61,0x6d,0x65,0x49,0x22,0x14,0x73,0x63,0x65,0x6e,0x65,0x5f,0x65,0x70,0x69,0x6c,0x6f,0x67,0x75,0x65,0x32,0x06,0x3a,0x06,0x45,0x54,0x3a,0x0c,0x40,0x76,0x6f,0x6c,0x75,0x6d,0x65,0x69,0x69,0x3a,0x0b,0x40,0x70,0x69,0x74,0x63,0x68,0x69,0x69))
  222()
  355("gain_medal(58)")
  If(0,4,0)
   ShowMessageFace("alice_fc5",0,0,2,43)
   ShowMessage("\\n<Alice>まあ、とにかく……")
   ShowMessage("色々あったが、レッドオーブは無事に手に入ったな。")
   0()
  EndIf()
  If(0,5,0)
   ShowMessageFace("iriasu_fc4",0,0,2,44)
   ShowMessage("\\n<Ilias>まあ、とにかく……")
   ShowMessage("色々ありましたが、レッドオーブは無事に手に入りましたね。")
   0()
  EndIf()
  If(0,6,0)
   ShowMessageFace("ruka_fc1",0,0,2,45)
   ShowMessage("\\n<Luka>ソニア、大丈夫……？")
   ShowMessageFace("sonia_fc3",3,0,2,46)
   ShowMessage("\\n<Sonya>最高位のエルフ相手に、あそこまで戦り合った自分がすごい……")
   If(0,4,0)
    ShowMessageFace("alice_fc5",0,0,2,47)
    ShowMessage("\\n<Alice>貴様はよくやった。")
    ShowMessage("向こうも予想以上の大ダメージを受けていたぞ……")
    0()
   EndIf()
   If(0,5,0)
    ShowMessageFace("iriasu_fc4",2,0,2,48)
    ShowMessage("\\n<Ilias>素晴らしい奮闘ぶりでした。")
    ShowMessage("向こうも予想以上の大ダメージを受けていましたね……")
    0()
   EndIf()
   0()
  Else()
   ShowMessageFace("ruka_fc1",0,0,2,49)
   ShowMessage("\\n<Luka>色々、大変そうだけどね……")
   0()
  EndIf()
  If(0,4,0)
   ShowMessageFace("alice_fc5",1,0,2,50)
   ShowMessage("\\n<Alice>エルフ姫の好意で、里の商人と鍛冶屋が神社に出向している。")
   ShowMessage("良い品を扱っているようで、ずいぶん助かるな。")
   0()
  EndIf()
  If(0,5,0)
   ShowMessageFace("iriasu_fc4",0,0,2,51)
   ShowMessage("\\n<Ilias>姫の好意で、里の商人と鍛冶屋が神社に出向しています。")
   ShowMessage("良い品を扱っているようで、ずいぶん助かりますね。")
   0()
  EndIf()
  If(0,6,0)
   ShowMessageFace("sonia_fc3",3,0,2,52)
   ShowMessage("\\n<Sonya>あー、助かるわぁ……")
   ShowMessageFace("ruka_fc1",0,0,2,53)
   ShowMessage("\\n<Luka>......")
   0()
  EndIf()
  RunCommonEvent(330)
  241(bytes(0x04,0x08,0x6f,0x3a,0x0d,0x52,0x50,0x47,0x3a,0x3a,0x42,0x47,0x4d,0x08,0x3a,0x0a,0x40,0x6e,0x61,0x6d,0x65,0x49,0x22,0x0a,0x6d,0x75,0x72,0x61,0x37,0x06,0x3a,0x06,0x45,0x54,0x3a,0x0c,0x40,0x76,0x6f,0x6c,0x75,0x6d,0x65,0x69,0x69,0x3a,0x0b,0x40,0x70,0x69,0x74,0x63,0x68,0x69,0x69))
  EndEventProcessing()
  0()
 PAGE   2
  // condition: variable 1081 >= 4
  0()

EVENT   3
 PAGE   1
  281(1)
  250(bytes(0x04,0x08,0x6f,0x3a,0x0c,0x52,0x50,0x47,0x3a,0x3a,0x53,0x45,0x08,0x3a,0x0a,0x40,0x6e,0x61,0x6d,0x65,0x49,0x22,0x09,0x4d,0x6f,0x76,0x65,0x06,0x3a,0x06,0x45,0x54,0x3a,0x0b,0x40,0x70,0x69,0x74,0x63,0x68,0x69,0x69,0x3a,0x0c,0x40,0x76,0x6f,0x6c,0x75,0x6d,0x65,0x69,0x55))
  TeleportPlayer(0,512,42,36,0,0)
  0()



EVENT   4
 PAGE   1
  250(bytes(0x04,0x08,0x6f,0x3a,0x0c,0x52,0x50,0x47,0x3a,0x3a,0x53,0x45,0x08,0x3a,0x0a,0x40,0x6e,0x61,0x6d,0x65,0x49,0x22,0x09,0x4d,0x6f,0x76,0x65,0x06,0x3a,0x06,0x45,0x54,0x3a,0x0b,0x40,0x70,0x69,0x74,0x63,0x68,0x69,0x69,0x3a,0x0c,0x40,0x76,0x6f,0x6c,0x75,0x6d,0x65,0x69,0x55))
  TeleportPlayer(0,513,32,30,0,0)
  0()



EVENT   5
 PAGE   1
  250(bytes(0x04,0x08,0x6f,0x3a,0x0c,0x52,0x50,0x47,0x3a,0x3a,0x53,0x45,0x08,0x3a,0x0a,0x40,0x6e,0x61,0x6d,0x65,0x49,0x22,0x09,0x4d,0x6f,0x76,0x65,0x06,0x3a,0x06,0x45,0x54,0x3a,0x0b,0x40,0x70,0x69,0x74,0x63,0x68,0x69,0x69,0x3a,0x0c,0x40,0x76,0x6f,0x6c,0x75,0x6d,0x65,0x69,0x55))
  TeleportPlayer(0,513,33,30,0,0)
  0()



EVENT   6
 PAGE   1
  If(1,1060,0,0,0)
   If(0,6,0)
    ShowMessageFace("sonia_fc3",7,0,2,1)
    ShowMessage("\\n<Sonya>It looks like everyone's still alive.\nActually, no one looks all that injured.")
    0()
   Else()
    ShowMessageFace("ruka_fc1",0,0,2,2)
    ShowMessage("\\n<Luka>It looks like everyone's still alive.\nActually, no one looks all that injured.")
    0()
   EndIf()
   If(0,4,0)
    ShowMessageFace("alice_fc6",0,0,2,3)
    ShowMessage("\\n<Alice>Did the assailant hold back so as to not kill anyone? And she was still able to overpower them?")
    0()
   EndIf()
   If(0,5,0)
    ShowMessageFace("iriasu_fc4",7,0,2,4)
    ShowMessage("\\n<Ilias>It appears our mystery assailant preferred to avoid needless bloodshed. I did not think anyone so strong existed on earth...")
    0()
   EndIf()
   0()
  EndIf()
  250(bytes(0x04,0x08,0x6f,0x3a,0x0c,0x52,0x50,0x47,0x3a,0x3a,0x53,0x45,0x08,0x3a,0x0a,0x40,0x6e,0x61,0x6d,0x65,0x49,0x22,0x09,0x4d,0x6f,0x76,0x65,0x06,0x3a,0x06,0x45,0x54,0x3a,0x0b,0x40,0x70,0x69,0x74,0x63,0x68,0x69,0x69,0x3a,0x0c,0x40,0x76,0x6f,0x6c,0x75,0x6d,0x65,0x69,0x55))
  TeleportPlayer(0,513,30,8,0,0)
  If(1,1060,0,0,0)
   241(bytes(0x04,0x08,0x6f,0x3a,0x0d,0x52,0x50,0x47,0x3a,0x3a,0x42,0x47,0x4d,0x08,0x3a,0x0a,0x40,0x6e,0x61,0x6d,0x65,0x49,0x22,0x0a,0x6b,0x69,0x6b,0x69,0x32,0x06,0x3a,0x06,0x45,0x54,0x3a,0x0c,0x40,0x76,0x6f,0x6c,0x75,0x6d,0x65,0x69,0x69,0x3a,0x0b,0x40,0x70,0x69,0x74,0x63,0x68,0x69,0x69))
   0()
  EndIf()
  0()



EVENT   7
 PAGE   1
  250(bytes(0x04,0x08,0x6f,0x3a,0x0c,0x52,0x50,0x47,0x3a,0x3a,0x53,0x45,0x08,0x3a,0x0a,0x40,0x6e,0x61,0x6d,0x65,0x49,0x22,0x09,0x4d,0x6f,0x76,0x65,0x06,0x3a,0x06,0x45,0x54,0x3a,0x0b,0x40,0x70,0x69,0x74,0x63,0x68,0x69,0x69,0x3a,0x0c,0x40,0x76,0x6f,0x6c,0x75,0x6d,0x65,0x69,0x55))
  TeleportPlayer(0,513,31,8,0,0)
  0()



EVENT   8
 PAGE   1
  281(1)
  250(bytes(0x04,0x08,0x6f,0x3a,0x0c,0x52,0x50,0x47,0x3a,0x3a,0x53,0x45,0x08,0x3a,0x0a,0x40,0x6e,0x61,0x6d,0x65,0x49,0x22,0x09,0x4d,0x6f,0x76,0x65,0x06,0x3a,0x06,0x45,0x54,0x3a,0x0b,0x40,0x70,0x69,0x74,0x63,0x68,0x69,0x69,0x3a,0x0c,0x40,0x76,0x6f,0x6c,0x75,0x6d,0x65,0x69,0x55))
  TeleportPlayer(0,512,27,15,0,0)
  0()



EVENT   9
 PAGE   1
  281(1)
  250(bytes(0x04,0x08,0x6f,0x3a,0x0c,0x52,0x50,0x47,0x3a,0x3a,0x53,0x45,0x08,0x3a,0x0a,0x40,0x6e,0x61,0x6d,0x65,0x49,0x22,0x09,0x4d,0x6f,0x76,0x65,0x06,0x3a,0x06,0x45,0x54,0x3a,0x0b,0x40,0x70,0x69,0x74,0x63,0x68,0x69,0x69,0x3a,0x0c,0x40,0x76,0x6f,0x6c,0x75,0x6d,0x65,0x69,0x55))
  TeleportPlayer(0,512,28,15,0,0)
  0()



EVENT   10
 PAGE   1
  ShowMessageFace("mikolamia_fc1",2,0,2,1)
  ShowMessage("\\n<巫女ラミア>Ngh... What strength...")
  0()
 PAGE   2
  // condition: variable 1060 >= 2
  0()



EVENT   11
 PAGE   1
  0()
 PAGE   2
  // condition: variable 1060 >= 2
  0()



EVENT   12
 PAGE   1
  ShowMessageFace("yukionna_fc1",2,0,2,1)
  ShowMessage("\\n<雪女>It doesn't look like anyone is going to die.\nShe was holding back, and yet still so strong...")
  0()
 PAGE   2
  // condition: variable 1060 >= 2
  0()



EVENT   13
 PAGE   1
  ShowMessageFace("mikolamia_fc1",2,0,2,1)
  ShowMessage("\\n<巫女ラミア>We got our asses kicked...")
  0()
 PAGE   2
  // condition: variable 1060 >= 2
  0()



EVENT   14
 PAGE   1
  ShowMessageFace("kirin_fc1",2,0,2,1)
  ShowMessage("\\n<麒麟>I can't believe anyone that strong could exist...")
  0()
 PAGE   2
  // condition: variable 1060 >= 2
  0()



EVENT   15
 PAGE   1
  ShowMessageFace("kezyorou_fc1",2,0,2,1)
  ShowMessage("\\n<毛倡妓>Wh-what even happened...\nI didn't even catch a glimpse of them...")
  0()
 PAGE   2
  // condition: variable 1060 >= 2
  0()



EVENT   16
 PAGE   1
  ShowMessageFace("husuma_fc1",2,0,2,1)
  ShowMessage("\\n<襖>Mmmnngh...")
  0()
 PAGE   2
  // condition: variable 1060 >= 2
  0()



EVENT   17
 PAGE   1
  ShowMessageFace("enenra_fc1",2,0,2,1)
  ShowMessage("\\n<煙々羅>Guh, that was awful...\nWell, I'm not terribly hurt, at least.")
  0()
 PAGE   2
  // condition: variable 1060 >= 2
  0()



EVENT   18
 PAGE   1
  ShowMessageFace("zyakotuonna_fc1",2,0,2,1)
  ShowMessage("\\n<蛇骨女>Such a little girl, but such strength...")
  0()
 PAGE   2
  // condition: variable 1060 >= 2
  0()



EVENT   19
 PAGE   1
  ShowMessageFace("kezyorou_fc1",2,0,2,1)
  ShowMessage("\\n<毛倡妓>I'm glad this conspiracy was put to rest...")
  0()
 PAGE   2
  // condition: variable 1060 >= 2
  0()



EVENT   20
 PAGE   1
  0()
 PAGE   2
  // condition: variable 1060 >= 1
  0()



EVENT   21
 PAGE   1
  205(-1,bytes(0x04,0x08,0x6f,0x3a,0x13,0x52,0x50,0x47,0x3a,0x3a,0x4d,0x6f,0x76,0x65,0x52,0x6f,0x75,0x74,0x65,0x09,0x3a,0x0c,0x40,0x72,0x65,0x70,0x65,0x61,0x74,0x46,0x3a,0x0f,0x40,0x73,0x6b,0x69,0x70,0x70,0x61,0x62,0x6c,0x65,0x46,0x3a,0x0a,0x40,0x77,0x61,0x69,0x74,0x54,0x3a,0x0a,0x40,0x6c,0x69,0x73,0x74,0x5b,0x07,0x6f,0x3a,0x15,0x52,0x50,0x47,0x3a,0x3a,0x4d,0x6f,0x76,0x65,0x43,0x6f,0x6d,0x6d,0x61,0x6e,0x64,0x07,0x3a,0x0a,0x40,0x63,0x6f,0x64,0x65,0x69,0x15,0x3a,0x10,0x40,0x70,0x61,0x72,0x61,0x6d,0x65,0x74,0x65,0x72,0x73,0x5b,0x00,0x6f,0x3b,0x0a,0x07,0x3b,0x0b,0x69,0x00,0x3b,0x0c,0x5b,0x00))
  ShowMessageFace("ruka_fc1",0,0,2,1)
  ShowMessage("\\n<Luka>Someone's here!")
  241(bytes(0x04,0x08,0x6f,0x3a,0x0d,0x52,0x50,0x47,0x3a,0x3a,0x42,0x47,0x4d,0x08,0x3a,0x0a,0x40,0x6e,0x61,0x6d,0x65,0x49,0x22,0x0a,0x62,0x6f,0x73,0x73,0x30,0x06,0x3a,0x06,0x45,0x54,0x3a,0x0c,0x40,0x76,0x6f,0x6c,0x75,0x6d,0x65,0x69,0x69,0x3a,0x0b,0x40,0x70,0x69,0x74,0x63,0x68,0x69,0x69))
  PictureDisplay(5,"80_sirohebisama_st03",0,0,0,0,100,100,0,0)
  PictureMove(5,null,0,0,0,0,100,100,255,0,30,true)
  ShowMessageFace("sirohebisama_fc1",2,0,2,2)
  ShowMessage("\\n<Shirohebi>Hsss, my entire army... destroyed.\nJust who the hell...")
  PictureDisplay(5,"80_neris_st01b",0,0,-150,0,100,100,255,0)
  PictureDisplay(6,"80_sirohebisama_st03",0,0,150,0,100,100,255,0)
  ShowMessageFace("neris_fc1",0,0,2,3)
  ShowMessage("\\n<Neris>You haven't heard of me?\nI'm Alipheese the 17th.")
  PictureClear(5)
  PictureClear(6)
  Wait(60)
  205(20,bytes(0x04,0x08,0x6f,0x3a,0x13,0x52,0x50,0x47,0x3a,0x3a,0x4d,0x6f,0x76,0x65,0x52,0x6f,0x75,0x74,0x65,0x09,0x3a,0x0c,0x40,0x72,0x65,0x70,0x65,0x61,0x74,0x46,0x3a,0x0f,0x40,0x73,0x6b,0x69,0x70,0x70,0x61,0x62,0x6c,0x65,0x46,0x3a,0x0a,0x40,0x77,0x61,0x69,0x74,0x54,0x3a,0x0a,0x40,0x6c,0x69,0x73,0x74,0x5b,0x07,0x6f,0x3a,0x15,0x52,0x50,0x47,0x3a,0x3a,0x4d,0x6f,0x76,0x65,0x43,0x6f,0x6d,0x6d,0x61,0x6e,0x64,0x07,0x3a,0x0a,0x40,0x63,0x6f,0x64,0x65,0x69,0x18,0x3a,0x10,0x40,0x70,0x61,0x72,0x61,0x6d,0x65,0x74,0x65,0x72,0x73,0x5b,0x00,0x6f,0x3b,0x0a,0x07,0x3b,0x0b,0x69,0x00,0x3b,0x0c,0x5b,0x00))
  ShowSpeechBalloon(20,1,true)
  PictureDisplay(5,"80_neris_st02b",0,0,0,0,100,100,0,0)
  PictureMove(5,null,0,0,0,0,100,100,255,0,30,true)
  ShowMessageFace("neris_fc1",1,0,2,4)
  ShowMessage("\\n<Neris>Ah, Luuuuukaaaa. ♪")
  If(0,4,0)
   ShowMessageFace("alice_fc6",0,0,2,5)
   ShowMessage("\\n<Alice>It's Alipheese the 17th!\nSo this raid was your doing!?")
   0()
  EndIf()
  If(0,5,0)
   ShowMessageFace("iriasu_fc4",7,0,2,6)
   ShowMessage("\\n<Ilias>Alipheese the 17th!\nThis raid was your handiwork!?")
   0()
  EndIf()
  ShowMessageFace("",0,0,2,7)
  ShowMessage("Come to think of it, we have heard stories of Alipheese the 17th attacking various powerful youma all over the world.")
  PictureDisplay(5,"80_neris_st03b",0,0,0,0,100,100,255,0)
  ShowMessageFace("neris_fc1",2,0,2,8)
  ShowMessage("\\n<Neris>Actually, this is bad...\nI'm not supposed to run into Luka here.")
  If(0,4,0)
   ShowMessageFace("alice_fc5",2,0,2,9)
   ShowMessage("\\n<Alice>What in the world are you plotting? It seems like you're just attacking queens and other famous monsters at random.")
   PictureDisplay(5,"80_neris_st01b",0,0,0,0,100,100,255,0)
   ShowMessageFace("neris_fc1",0,0,2,10)
   ShowMessage("\\n<Neris>How rude! It's not random at all...\nBlack Alice's conspirators were crushed beforehand in the correct history.")
   ShowMessageFace("alice_fc6",0,0,2,11)
   ShowMessage("\\n<Alice>All these monsters supported Black Alice in the correct history? What the hell for...?")
   0()
  EndIf()
  If(0,5,0)
   ShowMessageFace("iriasu_fc4",7,0,2,12)
   ShowMessage("\\n<Ilias>It appears that you are indiscriminately attacking powerful monsters. While I applaud your good deeds, your unclear intentions for performing them are a matter of concern.")
   PictureDisplay(5,"80_neris_st01b",0,0,0,0,100,100,255,0)
   ShowMessageFace("neris_fc1",0,0,2,13)
   ShowMessage("\\n<Neris>How rude! My attacks aren't indiscriminate.\nBlack Alice's conspirators were crushed beforehand in the correct history.")
   ShowMessageFace("neris_fc1",0,0,2,14)
   ShowMessage("\\n<Neris>This is all thanks to your plan to recreate the world in the first place! I'm cleaning up YOUR mess in advance!")
   ShowMessageFace("iriasu_fc4",5,0,2,15)
   ShowMessage("\\n<Ilias>Wait, you know about the plan...?\nEven the part about using Black Alice to start a war between monsters and humans?")
   0()
  EndIf()
  241(bytes(0x04,0x08,0x6f,0x3a,0x0d,0x52,0x50,0x47,0x3a,0x3a,0x42,0x47,0x4d,0x08,0x3a,0x0a,0x40,0x6e,0x61,0x6d,0x65,0x49,0x22,0x10,0x73,0x63,0x65,0x6e,0x65,0x5f,0x63,0x6f,0x6d,0x69,0x32,0x06,0x3a,0x06,0x45,0x54,0x3a,0x0c,0x40,0x76,0x6f,0x6c,0x75,0x6d,0x65,0x69,0x69,0x3a,0x0b,0x40,0x70,0x69,0x74,0x63,0x68,0x69,0x69))
  ShowMessageFace("neris_fc1",0,0,2,16)
  ShowMessage("\\n<Neris>Explanations are borrrrrring!")
  PictureClear(5)
  Wait(60)
  250(bytes(0x04,0x08,0x6f,0x3a,0x0c,0x52,0x50,0x47,0x3a,0x3a,0x53,0x45,0x08,0x3a,0x0a,0x40,0x6e,0x61,0x6d,0x65,0x49,0x22,0x0f,0x6d,0x6f,0x6e,0x5f,0x65,0x73,0x63,0x61,0x70,0x65,0x06,0x3a,0x06,0x45,0x54,0x3a,0x0b,0x40,0x70,0x69,0x74,0x63,0x68,0x69,0x69,0x3a,0x0c,0x40,0x76,0x6f,0x6c,0x75,0x6d,0x65,0x69,0x55))
  205(20,bytes(0x04,0x08,0x6f,0x3a,0x13,0x52,0x50,0x47,0x3a,0x3a,0x4d,0x6f,0x76,0x65,0x52,0x6f,0x75,0x74,0x65,0x09,0x3a,0x0c,0x40,0x72,0x65,0x70,0x65,0x61,0x74,0x46,0x3a,0x0f,0x40,0x73,0x6b,0x69,0x70,0x70,0x61,0x62,0x6c,0x65,0x46,0x3a,0x0a,0x40,0x77,0x61,0x69,0x74,0x46,0x3a,0x0a,0x40,0x6c,0x69,0x73,0x74,0x5b,0x18,0x6f,0x3a,0x15,0x52,0x50,0x47,0x3a,0x3a,0x4d,0x6f,0x76,0x65,0x43,0x6f,0x6d,0x6d,0x61,0x6e,0x64,0x07,0x3a,0x0a,0x40,0x63,0x6f,0x64,0x65,0x69,0x22,0x3a,0x10,0x40,0x70,0x61,0x72,0x61,0x6d,0x65,0x74,0x65,0x72,0x73,0x5b,0x06,0x69,0x0b,0x6f,0x3b,0x0a,0x07,0x3b,0x0b,0x69,0x23,0x3b,0x0c,0x5b,0x06,0x69,0x09,0x6f,0x3b,0x0a,0x07,0x3b,0x0b,0x69,0x08,0x3b,0x0c,0x5b,0x00,0x6f,0x3b,0x0a,0x07,0x3b,0x0b,0x69,0x08,0x3b,0x0c,0x5b,0x00,0x6f,0x3b,0x0a,0x07,0x3b,0x0b,0x69,0x08,0x3b,0x0c,0x5b,0x00,0x6f,0x3b,0x0a,0x07,0x3b,0x0b,0x69,0x08,0x3b,0x0c,0x5b,0x00,0x6f,0x3b,0x0a,0x07,0x3b,0x0b,0x69,0x08,0x3b,0x0c,0x5b,0x00,0x6f,0x3b,0x0a,0x07,0x3b,0x0b,0x69,0x08,0x3b,0x0c,0x5b,0x00,0x6f,0x3b,0x0a,0x07,0x3b,0x0b,0x69,0x08,0x3b,0x0c,0x5b,0x00,0x6f,0x3b,0x0a,0x07,0x3b,0x0b,0x69,0x08,0x3b,0x0c,0x5b,0x00,0x6f,0x3b,0x0a,0x07,0x3b,0x0b,0x69,0x08,0x3b,0x0c,0x5b,0x00,0x6f,0x3b,0x0a,0x07,0x3b,0x0b,0x69,0x08,0x3b,0x0c,0x5b,0x00,0x6f,0x3b,0x0a,0x07,0x3b,0x0b,0x69,0x08,0x3b,0x0c,0x5b,0x00,0x6f,0x3b,0x0a,0x07,0x3b,0x0b,0x69,0x08,0x3b,0x0c,0x5b,0x00,0x6f,0x3b,0x0a,0x07,0x3b,0x0b,0x69,0x08,0x3b,0x0c,0x5b,0x00,0x6f,0x3b,0x0a,0x07,0x3b,0x0b,0x69,0x08,0x3b,0x0c,0x5b,0x00,0x6f,0x3b,0x0a,0x07,0x3b,0x0b,0x69,0x08,0x3b,0x0c,0x5b,0x00,0x6f,0x3b,0x0a,0x07,0x3b,0x0b,0x69,0x08,0x3b,0x0c,0x5b,0x00,0x6f,0x3b,0x0a,0x07,0x3b,0x0b,0x69,0x00,0x3b,0x0c,0x5b,0x00))
  ShowMessageFace("neris_fc1",2,0,2,17)
  ShowMessage("\\n<Neris>Run away!")
  If(0,4,0)
   ShowMessageFace("alice_fc5",6,0,2,18)
   ShowMessage("\\n<Alice>Ah...!")
   0()
  EndIf()
  If(0,5,0)
   ShowMessageFace("iriasu_fc4",5,0,2,19)
   ShowMessage("\\n<Ilias>Ah...!")
   0()
  EndIf()
  ShowMessageFace("ruka_fc1",0,0,2,20)
  ShowMessage("\\n<Luka>Ah...!")
  PictureDisplay(5,"80_sirohebisama_st01",0,0,0,0,100,100,0,0)
  PictureMove(5,null,0,0,0,0,100,100,255,0,30,true)
  ShowMessageFace("sirohebisama_fc1",0,0,2,21)
  ShowMessage("\\n<Shirohebi>......")
  ShowMessageFace("sirohebisama_fc1",0,0,2,22)
  ShowMessage("\\n<Shirohebi>What the hell is going on here!?")
  If(0,4,0)
   ShowMessageFace("alice_fc6",1,0,2,23)
   ShowMessage("\\n<Alice>As if we know!")
   0()
  EndIf()
  If(0,5,0)
   ShowMessageFace("iriasu_fc5",0,0,2,24)
   ShowMessage("\\n<Ilias>Don't ask us!")
   0()
  EndIf()
  If(4,226,0)
   ShowMessageFace("sirohebisama_fc1",0,0,2,25)
   ShowMessage("\\n<Shirohebi’>This is rather unsettling...")
   ShowMessageFace("sirohebisama_fc1",2,0,2,26)
   ShowMessage("\\n<Shirohebi>Another one of me!? Does this nightmare have no end!?")
   0()
  EndIf()
  ShowMessageFace("sirohebisama_fc1",0,0,2,27)
  ShowMessage("\\n<Shirohebi>Whatever is going on, you're paying for it!")
  ShowMessageFace("ruka_fc1",0,0,2,28)
  ShowMessage("\\n<Luka>Let's see you try!")
  PictureClear(5)
  SetBattleBGM(bytes(0x04,0x08,0x6f,0x3a,0x0d,0x52,0x50,0x47,0x3a,0x3a,0x42,0x47,0x4d,0x08,0x3a,0x0a,0x40,0x6e,0x61,0x6d,0x65,0x49,0x22,0x0a,0x62,0x6f,0x73,0x73,0x31,0x06,0x3a,0x06,0x45,0x54,0x3a,0x0c,0x40,0x76,0x6f,0x6c,0x75,0x6d,0x65,0x69,0x69,0x3a,0x0b,0x40,0x70,0x69,0x74,0x63,0x68,0x69,0x69))
  ChangeSwitch(22,22,0)
  Battle(0,641,false,false)
  ChangeSwitch(22,22,1)
  SetBattleBGM(bytes(0x04,0x08,0x6f,0x3a,0x0d,0x52,0x50,0x47,0x3a,0x3a,0x42,0x47,0x4d,0x08,0x3a,0x0a,0x40,0x6e,0x61,0x6d,0x65,0x49,0x22,0x0b,0x62,0x61,0x74,0x74,0x6c,0x65,0x06,0x3a,0x06,0x45,0x54,0x3a,0x0c,0x40,0x76,0x6f,0x6c,0x75,0x6d,0x65,0x69,0x69,0x3a,0x0b,0x40,0x70,0x69,0x74,0x63,0x68,0x69,0x69))
  ChangeSwitch(2272,2272,1)
  241(bytes(0x04,0x08,0x6f,0x3a,0x0d,0x52,0x50,0x47,0x3a,0x3a,0x42,0x47,0x4d,0x08,0x3a,0x0a,0x40,0x6e,0x61,0x6d,0x65,0x49,0x22,0x14,0x73,0x63,0x65,0x6e,0x65,0x5f,0x65,0x70,0x69,0x6c,0x6f,0x67,0x75,0x65,0x32,0x06,0x3a,0x06,0x45,0x54,0x3a,0x0c,0x40,0x76,0x6f,0x6c,0x75,0x6d,0x65,0x69,0x69,0x3a,0x0b,0x40,0x70,0x69,0x74,0x63,0x68,0x69,0x69))
  PictureDisplay(5,"80_sirohebisama_st03",0,0,0,0,100,100,0,0)
  PictureMove(5,null,0,0,0,0,100,100,255,0,30,true)
  ShowMessageFace("sirohebisama_fc1",2,0,2,29)
  ShowMessage("\\n<Shirohebi>Unbelievable...\nCompletely defeated in every way...")
  PictureClear(5)
  If(0,4,0)
   ShowMessageFace("alice_fc5",2,0,2,30)
   ShowMessage("\\n<Alice>It looks like she's admitted defeat for now. She probably won't cause any more problems for a while.")
   ShowMessageFace("alice_fc5",3,0,2,31)
   ShowMessage("\\n<Alice>What's with Alipheese the 17th, though?\nIs she stirring up trouble, or is she trying to contain chaos?")
   0()
  EndIf()
  If(0,5,0)
   ShowMessageFace("iriasu_fc4",0,0,2,32)
   ShowMessage("\\n<Ilias>With their leader defeated, things should be relatively quiet around here for a while.")
   ShowMessageFace("iriasu_fc4",2,0,2,33)
   ShowMessage("\\n<Ilias>What's with Alipheese the 17th, though?\nIf she knows about the plan to recreate the world, then...")
   0()
  EndIf()
  ShowMessageFace("ruka_fc1",0,0,2,34)
  ShowMessage("\\n<Luka>Neris said something like she was defeating Black Alice's conspirators in advance, right?")
  If(0,6,0)
   ShowMessageFace("sonia_fc3",0,0,2,35)
   ShowMessage("\\n<Sonya>Hey, Luka...\nWhy are you calling Alipheese the 17th Neris?")
   ShowMessageFace("ruka_fc1",0,0,2,36)
   ShowMessage("\\n<Luka>Ummm, well...\nWhen we first met, she asked me to...")
   ShowMessageFace("sonia_fc3",0,0,2,37)
   ShowMessage("\\n<Sonya>......")
   ShowMessageFace("ruka_fc1",0,0,2,38)
   ShowMessage("\\n<Luka>What are you mad for?")
   0()
  EndIf()
  ShowMessageFace("durahan_fc1",0,0,2,39)
  ShowMessage("\\n<Arthur>Well, leaving your circumstances aside for the moment, I believe we've resolved the issue with the Snake Shrine.")
  314(0,0)
  ChangeVariable(1060,1060,0,0,1)
  If(1,1057,0,3,1)
   If(1,1058,0,1,1)
    If(1,1060,0,1,1)
     If(1,1059,0,3,1)
      ChangeVariable(1055,1055,0,0,3)
      ShowMessageFace("ruka_fc1",0,0,2,40)
      ShowMessage("\\n<Luka>Then we've taken care of all the problems at the four shrines. Let's go give the village elder the good news!")
      TeleportPlayer(0,512,27,15,2,0)
      ChangeVariable(1060,1060,0,0,2)
      EndEventProcessing()
      0()
     EndIf()
     0()
    EndIf()
    0()
   EndIf()
   0()
  EndIf()
  ShowMessageFace("ruka_fc1",0,0,2,41)
  ShowMessage("\\n<Luka>All right, on to the next shrine!")
  TeleportPlayer(0,512,27,15,2,0)
  ChangeVariable(1060,1060,0,0,2)
  EndEventProcessing()
  0()
 PAGE   2
  // condition: variable 1060 >= 1
  0()



EVENT   22
 PAGE   1
  // condition: variable 1060 >= 2
  ShowMessageFace("sirohebisama_fc1",0,0,2,1)
  ShowMessage("\\n<Shirohebi>Hmph, there's no need to be on guard around me. I've learned my lesson.")
  ShowMessageFace("sirohebisama_fc1",0,0,2,2)
  ShowMessage("\\n<Shirohebi>That said, this tiny village is no place for one of my power. If you wish, perhaps I would be willing to accompany you on your travels?")
  ShowMessageFace("sirohebisama_fc1",0,0,2,3)
  ShowMessage("\\n<Shirohebi>Not for free, mind you.\nI'll join your party in exchange for the \\ii[544].")
  If(8,544)
   ShowMessageFace("sirohebisama_fc1",0,0,2,4)
   ShowMessage("\\n<Shirohebi>Hmm, it appears you've brought the \\ii[544]. I shall honor my word and join you then.")
   PictureClear(5)
   205(0,bytes(0x04,0x08,0x6f,0x3a,0x13,0x52,0x50,0x47,0x3a,0x3a,0x4d,0x6f,0x76,0x65,0x52,0x6f,0x75,0x74,0x65,0x09,0x3a,0x0c,0x40,0x72,0x65,0x70,0x65,0x61,0x74,0x46,0x3a,0x0f,0x40,0x73,0x6b,0x69,0x70,0x70,0x61,0x62,0x6c,0x65,0x46,0x3a,0x0a,0x40,0x77,0x61,0x69,0x74,0x54,0x3a,0x0a,0x40,0x6c,0x69,0x73,0x74,0x5b,0x09,0x6f,0x3a,0x15,0x52,0x50,0x47,0x3a,0x3a,0x4d,0x6f,0x76,0x65,0x43,0x6f,0x6d,0x6d,0x61,0x6e,0x64,0x07,0x3a,0x0a,0x40,0x63,0x6f,0x64,0x65,0x69,0x2a,0x3a,0x10,0x40,0x70,0x61,0x72,0x61,0x6d,0x65,0x74,0x65,0x72,0x73,0x5b,0x00,0x6f,0x3b,0x0a,0x07,0x3b,0x0b,0x69,0x0f,0x3b,0x0c,0x5b,0x00,0x6f,0x3b,0x0a,0x07,0x3b,0x0b,0x69,0x2c,0x3b,0x0c,0x5b,0x00,0x6f,0x3b,0x0a,0x07,0x3b,0x0b,0x69,0x00,0x3b,0x0c,0x5b,0x00))
   355("add_actor_ex(226)")
   249(bytes(0x04,0x08,0x6f,0x3a,0x0c,0x52,0x50,0x47,0x3a,0x3a,0x4d,0x45,0x08,0x3a,0x0a,0x40,0x6e,0x61,0x6d,0x65,0x49,0x22,0x0c,0x66,0x61,0x6e,0x66,0x61,0x6c,0x65,0x06,0x3a,0x06,0x45,0x54,0x3a,0x0b,0x40,0x70,0x69,0x74,0x63,0x68,0x69,0x69,0x3a,0x0c,0x40,0x76,0x6f,0x6c,0x75,0x6d,0x65,0x69,0x69))
   ShowMessageFace("",0,0,2,5)
   ShowMessage("Shirohebi has joined the party!")
   Wait(60)
   ChangeSelfSwitch("A",0)
   ShowMessageFace("sirohebisama_fc1",0,0,2,6)
   ShowMessage("\\n<Shirohebi>Though now that I look at it up close, the \\ii[544] has a rather ugly face. I don't want it anymore. You can keep it.")
   0()
  Else()
   ShowMessageFace("ruka_fc1",0,0,2,7)
   ShowMessage("\\n<Luka>Where can we find the \\ii[544]?")
   ShowMessageFace("sirohebisama_fc1",0,0,2,8)
   ShowMessage("\\n<Shirohebi>I've heard it's enshrined in Orochi's cave. Apparently it's kept in the rumored secret treasure room there.")
   0()
  EndIf()
  EndEventProcessing()
  0()
 PAGE   2
  // condition: self-switch A is ON
  0()



EVENT   23
 PAGE   1
  // condition: variable 1060 >= 2
  ShowMessageFace("sirohebisama_fc1",3,0,2,1)
  ShowMessage("\\n<Shirohebi>So you defeated my sister? It seems I owe you my thanks.")
  ShowMessageFace("sirohebisama_fc1",3,0,2,2)
  ShowMessage("\\n<Shirohebi>My sister learned her lesson from the incident, at least. She won't cause trouble like that again.")
  0()



EVENT   24
 PAGE   1
  ShowMessageFace("kirin_fc1",2,0,2,1)
  ShowMessage("\\n<麒麟>I'm one of the highest class of great youkai, and yet...")
  0()
 PAGE   2
  // condition: variable 1060 >= 2
  0()



EVENT   25
 PAGE   1
  ShowMessageFace("mikolamia_fc1",2,0,2,1)
  ShowMessage("\\n<巫女ラミア>I have no idea what even happened...")
  0()
 PAGE   2
  // condition: variable 1060 >= 2
  0()



EVENT   26
 PAGE   1
  ShowMessageFace("yukionna_fc1",2,0,2,1)
  ShowMessage("\\n<雪女>What a swordsman...\nI couldn't follow her movements at all...")
  0()
 PAGE   2
  // condition: variable 1060 >= 2
  0()



EVENT   27
 PAGE   1
  ShowMessageFace("mikolamia_fc1",0,0,2,1)
  ShowMessage("\\n<巫女ラミア>Men aren't supposed to be in here...\nOh well, I won't make a big deal of it.")
  0()



EVENT   28
 PAGE   1
  ShowMessageFace("mikolamia_fc1",0,0,2,1)
  ShowMessage("\\n<巫女ラミア>清く正しく生きていますよ……昼間のうちは。")
  355("actor_label_jump")
  EndEventProcessing()
  DefineLabel("123")
  ShowMessageFace("sisccubus_fc1",1,0,2,2)
  ShowMessage("\\n<Christie>もちろん夜は、お楽しみですよね……？")
  ShowMessageFace("mikolamia_fc1",1,0,2,3)
  ShowMessage("\\n<巫女ラミア>もちろん！")
  EndEventProcessing()
  0()



EVENT   29
 PAGE   1
  ShowMessageFace("",0,0,2,1)
  ShowMessage("\\n<Cat>Meeeow.")
  355("actor_label_jump")
  EndEventProcessing()
  DefineLabel("222")
  ShowMessageFace("nekomata_fc1",2,0,2,2)
  ShowMessage("\\n<Tama>Meow... ♪")
  EndEventProcessing()
  0()



EVENT   30
 PAGE   1
  // condition: variable 1081 >= 3
  ShowMessageFace("kunoitielf2_fc2",1,0,2,1)
  ShowMessage("\\n<エルフ側近>勇者ルカ様ですね、姫がお待ちしております。")
  ShowMessage("こちらへどうぞ……")
  221()
  TeleportPlayer(0,513,41,34,6,2)
  ChangeSwitch(31,31,0)
  Wait(60)
  216(1)
  222()
  ChangeSwitch(2278,2278,0)
  0()
 PAGE   2
  // condition: switch 2278 is ON
  0()



EVENT   31
 PAGE   1
  // condition: variable 1081 >= 3
  0()
 PAGE   2
  // condition: variable 1081 >= 4
  0()



EVENT   32
 PAGE   1
  // condition: variable 1081 >= 3
  ShowMessageFace("",0,0,2,1)
  ShowMessage("\\n<エルフ鍛冶>姫のご意向で、しばらくここで仕事をさせてもらう。")
  ShowMessage("さて、どんなご用件だ？")
  ShowChoices(strings("Synthesis","Make Rainbow equipment","Talk"),0)
  IfPlayerPicksChoice(0,null)
   355("call_synthesize(20)")
   EndEventProcessing()
   0()
  IfPlayerPicksChoice(1,null)
   If(8,157)
    Shop(1,26,0,0,false)
    605(1,74,0,0)
    605(1,161,0,0)
    605(1,226,0,0)
    605(1,252,0,0)
    605(1,276,0,0)
    605(1,316,0,0)
    605(1,350,0,0)
    605(1,386,0,0)
    605(1,427,0,0)
    605(1,459,0,0)
    605(1,494,0,0)
    605(1,534,0,0)
    605(1,573,0,0)
    605(1,609,0,0)
    605(1,644,0,0)
    605(1,685,0,0)
    605(1,715,0,0)
    605(1,743,0,0)
    605(1,766,0,0)
    605(1,787,0,0)
    605(1,811,0,0)
    605(1,835,0,0)
    605(1,860,0,0)
    605(2,46,0,0)
    605(2,90,0,0)
    605(2,117,0,0)
    605(2,219,0,0)
    605(2,251,0,0)
    605(2,314,0,0)
    605(0,106,0,0)
    0()
   Else()
    ShowMessageFace("",0,0,2,2)
    ShowMessage("\\n<エルフ鍛冶>素材である虹の結晶がなければ、武具を造る事はできないぞ。")
    EndEventProcessing()
    0()
   EndIf()
   0()
  IfPlayerPicksChoice(2,null)
   ShowMessageFace("",0,0,2,3)
   ShowMessage("\\n<エルフ鍛冶>妖精の島には、私の妹がいる。")
   ShowMessage("共に鍛冶を志し腕を競っていたが、今も元気だろうか。")
   EndEventProcessing()
   0()
  404()
  0()



EVENT   33
 PAGE   1
  // condition: variable 1081 >= 3
  ShowMessageFace("",0,0,2,1)
  ShowMessage("\\n<エルフ商人>姫のご命令で、しばらくここで商売する事になりました。")
  ShowMessage("何がご入り用ですか？")
  Shop(0,2,0,0,false)
  605(0,13,0,0)
  605(0,17,0,0)
  605(0,21,0,0)
  605(0,76,0,0)
  605(0,80,0,0)
  605(1,274,0,0)
  605(2,268,0,0)
  605(2,1047,0,0)
  605(2,1057,0,0)
  605(2,1131,0,0)
  605(2,1139,0,0)
  605(2,1549,0,0)
  605(2,1551,0,0)
  605(2,1553,0,0)
  605(2,1555,0,0)
  605(2,1557,0,0)
  605(2,1559,0,0)
  605(2,1709,0,0)
  If(1,1005,0,19,0)
   If(4,66,0)
    If(0,2065,0)
     If(2,"A",1)
      ChangeSelfSwitch("A",0)
      ShowMessageFace("vgirl_fc1",0,0,2,2)
      ShowMessage("\\n<Vanilla>はじめまして、商人のヴァニラです。")
      ShowMessage("白聖石と黒闇石を、取引したいのですが……")
      ShowMessageFace("",0,0,2,3)
      ShowMessage("\\n<エルフ商人>里の商人は、エルフ以外とは取引をしません。")
      ShowMessage("でも、あなた達には便宜を図るよう申しつけられています。")
      ShowMessageFace("",0,0,2,4)
      ShowMessage("\\n<エルフ商人>そこで交換取引はいかがでしょう？")
      ShowMessage("現在、エルフの里にてとある貴族が「銀竜像」を求めているのです。")
      ShowMessageFace("vgirl_fc1",0,0,2,5)
      ShowMessage("\\n<Vanilla>「銀竜像」というと確か……")
      ShowMessage("あの黒のアリスが所持していたという美術品ですね。")
      ShowMessageFace("",0,0,2,6)
      ShowMessage("\\n<エルフ商人>この品は五百年前、黒のアリスが討たれた際に行方不明になりました。")
      ShowMessage("それをぜひ、世界を飛び回っているあなた達に探してもらいたいのです。")
      If(0,4,0)
       ShowMessageFace("alice_fc5",0,0,2,7)
       ShowMessage("\\n<Alice>黒のアリスが討たれ、行方不明となった品……")
       ShowMessage("いっそ、討たれる前に見つけた方が早いかもしれんな。")
       0()
      EndIf()
      If(0,5,0)
       ShowMessageFace("iriasu_fc4",2,0,2,8)
       ShowMessage("\\n<Ilias>黒のアリスが討たれ、行方不明となった品……")
       ShowMessage("いっそ、討たれる前に見つけた方が早いですね。")
       0()
      EndIf()
      EndEventProcessing()
      0()
     Else()
      If(8,553)
       ChangeInventory_Item(553,1,0,1)
       ShowMessageFace("",0,0,2,9)
       ShowMessage("\\n<エルフ商人>ああ、これは確かに「銀竜像」！")
       ShowMessage("もちろん、適正価格で買い取らせて頂きます。")
       250(bytes(0x04,0x08,0x6f,0x3a,0x0c,0x52,0x50,0x47,0x3a,0x3a,0x53,0x45,0x08,0x3a,0x0a,0x40,0x6e,0x61,0x6d,0x65,0x49,0x22,0x0a,0x49,0x74,0x65,0x6d,0x31,0x06,0x3a,0x06,0x45,0x54,0x3a,0x0b,0x40,0x70,0x69,0x74,0x63,0x68,0x69,0x69,0x3a,0x0c,0x40,0x76,0x6f,0x6c,0x75,0x6d,0x65,0x69,0x55))
       125(0,0,45000)
       ShowMessageFace("",0,0,2,10)
       ShowMessage("エルフ商人は銀竜像を45000ゴールドで買い取った！")
       ShowMessageFace("",0,0,2,11)
       ShowMessage("\\n<エルフ商人>それじゃあ約束通り、聖と闇の魔石を取引しましょう。")
       ShowMessage("価格の方は、そちらの申し出通りで問題ありません。")
       ShowMessageFace("vgirl_fc1",0,0,2,12)
       ShowMessage("\\n<Vanilla>ありがとうございます！")
       ShowMessage("今後ともよろしく……なのだ！")
       249(bytes(0x04,0x08,0x6f,0x3a,0x0c,0x52,0x50,0x47,0x3a,0x3a,0x4d,0x45,0x08,0x3a,0x0a,0x40,0x6e,0x61,0x6d,0x65,0x49,0x22,0x0c,0x66,0x61,0x6e,0x66,0x61,0x6c,0x65,0x06,0x3a,0x06,0x45,0x54,0x3a,0x0b,0x40,0x70,0x69,0x74,0x63,0x68,0x69,0x69,0x3a,0x0c,0x40,0x76,0x6f,0x6c,0x75,0x6d,0x65,0x69,0x69))
       ShowMessageFace("",0,0,2,13)
       ShowMessage("ヴァニラの店で白聖石と黒闇石を扱うようになった！")
       ChangeVariable(1005,1005,0,0,20)
       ChangeSwitch(2065,2065,1)
       Wait(60)
       EndEventProcessing()
       0()
      Else()
       ShowMessageFace("",0,0,2,14)
       ShowMessage("\\n<エルフ商人>交換取引はいかがでしょう？")
       ShowMessage("現在、エルフの里にてとある貴族が「銀竜像」を求めているのです。")
       ShowMessageFace("",0,0,2,15)
       ShowMessage("\\n<エルフ商人>この品は五百年前、黒のアリスが討たれた際に行方不明になりました。")
       ShowMessage("それをぜひ、世界を飛び回っているあなた達に探してもらいたいのです。")
       If(0,4,0)
        ShowMessageFace("alice_fc5",0,0,2,16)
        ShowMessage("\\n<Alice>黒のアリスが討たれ、行方不明となった品……")
        ShowMessage("いっそ、討たれる前に見つけた方が早いかもしれんな。")
        0()
       EndIf()
       If(0,5,0)
        ShowMessageFace("iriasu_fc4",2,0,2,17)
        ShowMessage("\\n<Ilias>黒のアリスが討たれ、行方不明となった品……")
        ShowMessage("いっそ、討たれる前に見つけた方が早いですね。")
        0()
       EndIf()
       EndEventProcessing()
       0()
      EndIf()
      0()
     EndIf()
     0()
    EndIf()
    0()
   EndIf()
   0()
  EndIf()
  0()



EVENT   34
 PAGE   1
  // condition: variable 1081 >= 3
  0()
 PAGE   2
  // condition: variable 1081 >= 4
  0()



EVENT   35
 PAGE   1
  // condition: switch 6 is ON
  // condition: switch 31 is ON
  // condition: variable 1081 >= 3
  0()
 PAGE   2
  // condition: variable 1081 >= 4
  0()



EVENT   36
 PAGE   1
  250(bytes(0x04,0x08,0x6f,0x3a,0x0c,0x52,0x50,0x47,0x3a,0x3a,0x53,0x45,0x08,0x3a,0x0a,0x40,0x6e,0x61,0x6d,0x65,0x49,0x22,0x0a,0x49,0x74,0x65,0x6d,0x31,0x06,0x3a,0x06,0x45,0x54,0x3a,0x0b,0x40,0x70,0x69,0x74,0x63,0x68,0x69,0x69,0x3a,0x0c,0x40,0x76,0x6f,0x6c,0x75,0x6d,0x65,0x69,0x55))
  ChangeSelfSwitch("A",0)
  ChangeInventory_Item(211,0,0,1)
  0()
 PAGE   2
  // condition: self-switch A is ON
  0()


