// EVENT 0048
Name "Skill: Play 81-90"

ChangeVariable(11,11,0,2,1,5)
If(1,100,0,81,0)
 If(1,11,0,1,0)
  ShowMessageFace("mitubati_fc1",0,0,2,1)
  ShowMessage("\\n<Honey>Give me a second, snack time...")
  ShowMessageFace("",0,0,2,2)
  ShowMessage("Honey is... licking honey.")
  EndEventProcessing()
  0()
 EndIf()
 If(1,11,0,2,0)
  ShowMessageFace("mitubati_fc1",1,0,2,3)
  ShowMessage("\\n<Honey>This is a special gift.")
  ShowMessageFace("",0,0,2,4)
  ShowMessage("Honey offers a gift.")
  250(bytes(0x04,0x08,0x6f,0x3a,0x0c,0x52,0x50,0x47,0x3a,0x3a,0x53,0x45,0x08,0x3a,0x0a,0x40,0x6e,0x61,0x6d,0x65,0x49,0x22,0x0a,0x49,0x74,0x65,0x6d,0x31,0x06,0x3a,0x06,0x45,0x54,0x3a,0x0b,0x40,0x70,0x69,0x74,0x63,0x68,0x69,0x69,0x3a,0x0c,0x40,0x76,0x6f,0x6c,0x75,0x6d,0x65,0x69,0x55))
  ChangeInventory_Item(436,0,0,1)
  ShowMessageFace("",0,0,2,5)
  ShowMessage("You obtain \\ii[436]!")
  EndEventProcessing()
  0()
 EndIf()
 If(1,11,0,3,0)
  ShowMessageFace("grizzly_fc1",0,0,2,6)
  ShowMessage("\\n<Bear Girl>Grrrrowl!")
  ShowMessageFace("mitubati_fc1",2,0,2,7)
  ShowMessage("\\n<Honey>Damn, you again.\nI'm not giving up my honey!")
  ShowMessageFace("",0,0,2,8)
  ShowMessage("Honey is attacked by a Bear Girl!")
  ShowMessage("They're fighting over honey!")
  EndEventProcessing()
  0()
 EndIf()
 If(1,11,0,4,0)
  ShowMessageFace("mitubati_fc1",0,0,2,9)
  ShowMessage("\\n<Honey>This guy was eating my honey a while ago!\nI caught it but I don't know what to do with it!")
  ChangeInventory_Item(448,0,0,1)
  ShowMessageFace("",0,0,2,10)
  ShowMessage("Honey caught a beetle.")
  ShowMessage("You obtain a \\ii[448]!")
  EndEventProcessing()
  0()
 EndIf()
 If(1,11,0,5,0)
  ShowMessageFace("mitubati_fc1",2,0,2,11)
  ShowMessage("\\n<Honey>Ahh! Wasps!\nHey! G-get away from me!")
  250(bytes(0x04,0x08,0x6f,0x3a,0x0c,0x52,0x50,0x47,0x3a,0x3a,0x53,0x45,0x08,0x3a,0x0a,0x40,0x6e,0x61,0x6d,0x65,0x49,0x22,0x08,0x52,0x75,0x6e,0x06,0x3a,0x06,0x45,0x54,0x3a,0x0b,0x40,0x70,0x69,0x74,0x63,0x68,0x69,0x69,0x3a,0x0c,0x40,0x76,0x6f,0x6c,0x75,0x6d,0x65,0x69,0x55))
  ShowMessageFace("",0,0,2,12)
  ShowMessage("Honey ran away!")
  ShowMessage("But she got turned around and ended up right back here...")
  EndEventProcessing()
  0()
 EndIf()
 0()
EndIf()
If(1,100,0,82,0)
 If(1,11,0,1,0)
  ShowMessageFace("suzume_fc1",0,0,2,13)
  ShowMessage("\\n<Chirp>Chirp, chirp, chirp.")
  ShowMessageFace("",0,0,2,14)
  ShowMessage("Chirp is grooming her feathers.")
  EndEventProcessing()
  0()
 EndIf()
 If(1,11,0,2,0)
  ShowMessageFace("suzume_fc1",1,0,2,15)
  ShowMessage("\\n<Chirp>Chirp chirp, good morning. ♪")
  355("interrupt_skill(2067)")
  EndEventProcessing()
  0()
 EndIf()
 If(1,11,0,3,0)
  ShowMessageFace("suzume_fc1",3,0,2,16)
  ShowMessage("\\n<Chirp>I-I'm just a sparrow.")
  ShowMessageFace("",0,0,2,17)
  ShowMessage("Chirp is scared.")
  EndEventProcessing()
  0()
 EndIf()
 If(1,11,0,4,0)
  ShowMessageFace("suzume_fc1",0,0,2,18)
  ShowMessage("\\n<Chirp>Rice... someone spilled rice.")
  ShowMessageFace("",0,0,2,19)
  ShowMessage("Chirp is picking up grains of rice.")
  EndEventProcessing()
  0()
 EndIf()
 If(1,11,0,5,0)
  ShowMessageFace("suzume_fc1",2,0,2,20)
  ShowMessage("\\n<Chirp>I am a sparrow!")
  ShowMessageFace("",0,0,2,21)
  ShowMessage("Chirp spreads her wings threateningly!")
  ShowMessage("...but no one was watching.")
  EndEventProcessing()
  0()
 EndIf()
 0()
EndIf()
If(1,100,0,83,0)
 If(1,11,0,1,0)
  ShowMessageFace("hapy_a_fc1",0,0,2,22)
  ShowMessage("\\n<Reina>Harpies love looking their best. ♪")
  ShowMessageFace("",0,0,2,23)
  ShowMessage("Reina is grooming her feathers!")
  EndEventProcessing()
  0()
 EndIf()
 If(1,11,0,2,0)
  ShowMessageFace("hapy_a_fc1",0,0,2,24)
  ShowMessage("\\n<Reina>Health is important, you know. ♪")
  355("interrupt_skill(2046)")
  EndEventProcessing()
  0()
 EndIf()
 If(1,11,0,3,0)
  ShowMessageFace("hapy_a_fc1",0,0,2,25)
  ShowMessage("\\n<Reina>Flap! Flap! Flap!")
  355("interrupt_skill(2830)")
  EndEventProcessing()
  0()
 EndIf()
 If(1,11,0,4,0)
  ShowMessageFace("hapy_a_fc1",1,0,2,26)
  ShowMessage("\\n<Reina>I can enjoy the world because I have you. ♪")
  ShowMessageFace("",0,0,2,27)
  ShowMessage("Reina is happily dancing and singing.")
  EndEventProcessing()
  0()
 EndIf()
 If(1,11,0,5,0)
  ShowMessageFace("hapy_a_fc1",1,0,2,28)
  ShowMessage("\\n<Reina>Yaaay! ♪")
  ShowMessageFace("",0,0,2,29)
  ShowMessage("Reina struck a pose!")
  ShowMessage("...but no one was watching.")
  EndEventProcessing()
  0()
 EndIf()
 0()
EndIf()
If(1,100,0,84,0)
 If(1,11,0,1,0)
  ShowMessageFace("hapy_bc_fc1",0,0,2,30)
  ShowMessage("\\n<Pina>Pii, let me clean your feathers.")
  ShowMessageFace("hapy_bc_fc1",0,0,2,31)
  ShowMessage("\\n<Pii>I'll clean big sis's feathers too.")
  ShowMessageFace("",0,0,2,32)
  ShowMessage("Pina and Pii are grooming each others feathers.")
  EndEventProcessing()
  0()
 EndIf()
 If(1,11,0,2,0)
  ShowMessageFace("hapy_bc_fc1",0,0,2,33)
  ShowMessage("\\n<Pii>I'm tired for some reason.")
  ShowMessageFace("hapy_bc_fc1",0,0,2,34)
  ShowMessage("\\n<Pina>Well then, let's sneak in a quick nap.")
  313(0,84,0,11)
  ShowMessageFace("",0,0,2,35)
  ShowMessage("Pina and Pii have fallen asleep.")
  EndEventProcessing()
  0()
 EndIf()
 If(1,11,0,3,0)
  ShowMessageFace("hapy_bc_fc1",0,0,2,36)
  ShowMessage("\\n<Pii>It's a fight! Let's throw rocks!")
  ShowMessageFace("hapy_bc_fc1",0,0,2,37)
  ShowMessage("\\n<Pina>I'll help you, little sis! Ha! Ha!")
  355("interrupt_skill(3308)")
  EndEventProcessing()
  0()
 EndIf()
 If(1,11,0,4,0)
  ShowMessageFace("hapy_bc_fc1",0,0,2,38)
  ShowMessage("\\n<Pina>You can do it! You can do it! ♪")
  ShowMessageFace("hapy_bc_fc1",0,0,2,39)
  ShowMessage("\\n<Pii>So energetic.")
  355("interrupt_skill(2046)")
  EndEventProcessing()
  0()
 EndIf()
 If(1,11,0,5,0)
  ShowMessageFace("hapy_bc_fc1",0,0,2,40)
  ShowMessage("\\n<Pii>Let's draw a picture.")
  ShowMessageFace("hapy_bc_fc1",0,0,2,41)
  ShowMessage("\\n<Pina>I'll help big sis. ♪")
  ShowMessageFace("",0,0,2,42)
  ShowMessage("Pina and Pii are doodling on the ground.")
  EndEventProcessing()
  0()
 EndIf()
 0()
EndIf()
If(1,100,0,85,0)
 If(1,11,0,1,0)
  ShowMessageFace("highslag_fc1",0,0,2,43)
  ShowMessage("\\n<Elizabeth>Oh jeez, my hat is so slimy.")
  ShowMessageFace("",0,0,2,44)
  ShowMessage("Elizabeth tried to wipe mucus from her hat.")
  ShowMessage("It became even slimier as a result!")
  EndEventProcessing()
  0()
 EndIf()
 If(1,11,0,2,0)
  ShowMessageFace("highslag_fc1",0,0,2,45)
  ShowMessage("\\n<Elizabeth>*munch* *munch* *sip*")
  ShowMessageFace("",0,0,2,46)
  ShowMessage("Elizabeth has stolen some food.")
  EndEventProcessing()
  0()
 EndIf()
 If(1,11,0,3,0)
  ShowMessageFace("name_fc1",3,0,2,47)
  ShowMessage("\\n<ナメ>Long time no see, big sister.")
  ShowMessageFace("highslag_fc1",1,0,2,48)
  ShowMessage("\\n<Elizabeth>Ah, hi sis!\nI'll give you a lot of love, fufufu.")
  ShowMessageFace("",0,0,2,49)
  ShowMessage("Elizabeth and her younger sister are sticking together.")
  EndEventProcessing()
  0()
 EndIf()
 If(1,11,0,4,0)
  ShowMessageFace("highslag_fc1",0,0,2,50)
  ShowMessage("\\n<Elizabeth>Salt is really dangerous and should be illegal.")
  ShowMessageFace("",0,0,2,51)
  ShowMessage("Elizabeth grumbles to herself.")
  EndEventProcessing()
  0()
 EndIf()
 If(1,11,0,5,0)
  ShowMessageFace("highslag_fc1",0,0,2,52)
  ShowMessage("\\n<Elizabeth>Slimy.")
  313(0,85,0,306)
  ShowMessageFace("",0,0,2,53)
  ShowMessage("Elizabeth produces a large amount of mucus.")
  ShowMessage("By becoming so slimy, her defense has increased!")
  EndEventProcessing()
  0()
 EndIf()
 0()
EndIf()
If(1,100,0,86,0)
 If(1,11,0,1,0)
  ShowMessageFace("name_s_fc1",0,0,2,54)
  ShowMessage("\\n<Rosary>Goddess, give us your protection.")
  355("interrupt_skill(3302)")
  EndEventProcessing()
  0()
 EndIf()
 If(1,11,0,2,0)
  ShowMessageFace("name_s_fc1",0,0,2,55)
  ShowMessage("\\n<Rosary>Oh, my antennae came out.")
  ShowMessageFace("",0,0,2,56)
  ShowMessage("Rosary tried to pull her antennae back into her habit.")
  ShowMessage("But they just bounced back out.")
  EndEventProcessing()
  0()
 EndIf()
 If(1,11,0,3,0)
  ShowMessageFace("name_s_fc1",0,0,2,57)
  ShowMessage("\\n<Rosary>Naccubus gave me some seeds.\nLet's plant them here.")
  355("interrupt_skill(3299)")
  EndEventProcessing()
  0()
 EndIf()
 If(1,11,0,4,0)
  ShowMessageFace("name_s_fc1",0,0,2,58)
  ShowMessage("\\n<Rosary>Slimy.")
  313(0,86,0,306)
  ShowMessageFace("",0,0,2,59)
  ShowMessage("Rosary produces a large amount of mucus.")
  ShowMessage("By becoming so slimy, her defense has increased!")
  EndEventProcessing()
  0()
 EndIf()
 If(1,11,0,5,0)
  ShowMessageFace("name_s_fc1",2,0,2,60)
  ShowMessage("\\n<Rosary>I was a slimy sister with nowhere to go.\nChurches would just kick me out.")
  ShowMessageFace("",0,0,2,61)
  ShowMessage("Rosary complains by herself.")
  EndEventProcessing()
  0()
 EndIf()
 0()
EndIf()
If(1,100,0,87,0)
 If(1,11,0,1,0)
  ShowMessageFace("name2_fc2",1,0,2,62)
  ShowMessage("\\n<Melty>With this we shall decide who is best!")
  ShowMessageFace("",0,0,2,63)
  ShowMessage("The Melty sisters are playing rock-paper-scissors.")
  EndEventProcessing()
  0()
 EndIf()
 If(1,11,0,2,0)
  ShowMessageFace("name2_fc2",1,0,2,64)
  ShowMessage("\\n<Melty>With the three of us together! Here we go!")
  355("interrupt_skill(3309)")
  EndEventProcessing()
  0()
 EndIf()
 If(1,11,0,3,0)
  ShowMessageFace("name2_fc2",1,0,2,65)
  ShowMessage("\\n<Melty>Slimy.")
  313(0,86,0,306)
  ShowMessageFace("",0,0,2,66)
  ShowMessage("The Melty sisters produce a large amount of mucus.")
  ShowMessage("By becoming so slimy, their defense has increased!")
  EndEventProcessing()
  0()
 EndIf()
 If(1,11,0,4,0)
  ShowMessageFace("name2_fc2",1,0,2,67)
  ShowMessage("\\n<Melty>We want to mate.")
  ShowMessageFace("",0,0,2,68)
  ShowMessage("The Melty sisters have spaced out.")
  EndEventProcessing()
  0()
 EndIf()
 If(1,11,0,5,0)
  ShowMessageFace("name2_fc2",1,0,2,69)
  ShowMessage("\\n<Melty>It's a slug dance. ♪\nSlimy, slimy. ♪")
  ShowMessageFace("",0,0,2,70)
  ShowMessage("The Melty sisters start a strange dance.")
  ShowMessage("...but nothing happened.")
  EndEventProcessing()
  0()
 EndIf()
 0()
EndIf()
If(1,100,0,88,0)
 If(1,11,0,1,0)
  ShowMessageFace("jack_fc1",1,0,2,71)
  ShowMessage("\\n<Pumpkin>Oh, I found a snail.")
  ShowMessageFace("",0,0,2,72)
  ShowMessage("Pumpkin caught a snail and put it in her pocket!")
  EndEventProcessing()
  0()
 EndIf()
 If(1,11,0,2,0)
  ShowMessageFace("jack_fc1",1,0,2,73)
  ShowMessage("\\n<Pumpkin>Oh, I found a beetle.")
  250(bytes(0x04,0x08,0x6f,0x3a,0x0c,0x52,0x50,0x47,0x3a,0x3a,0x53,0x45,0x08,0x3a,0x0a,0x40,0x6e,0x61,0x6d,0x65,0x49,0x22,0x0a,0x49,0x74,0x65,0x6d,0x31,0x06,0x3a,0x06,0x45,0x54,0x3a,0x0b,0x40,0x70,0x69,0x74,0x63,0x68,0x69,0x69,0x3a,0x0c,0x40,0x76,0x6f,0x6c,0x75,0x6d,0x65,0x69,0x55))
  ChangeInventory_Item(448,0,0,1)
  ShowMessageFace("",0,0,2,74)
  ShowMessage("Pumpkin caught a beetle.")
  ShowMessage("You obtain a \\ii[448]!")
  EndEventProcessing()
  0()
 EndIf()
 If(1,11,0,3,0)
  ShowMessageFace("jack_fc1",2,0,2,75)
  ShowMessage("\\n<Pumpkin>Don't pick on me.")
  ShowMessageFace("",0,0,2,76)
  ShowMessage("Pumpkin is scared.")
  EndEventProcessing()
  0()
 EndIf()
 If(1,11,0,4,0)
  ShowMessageFace("jack_fc1",2,0,2,77)
  ShowMessage("\\n<Pumpkin>Help me!")
  ShowMessageFace("",0,0,2,78)
  ShowMessage("Pumpkin ran away!")
  ShowMessage("...but she didn't know the way and quickly came back.")
  EndEventProcessing()
  0()
 EndIf()
 If(1,11,0,5,0)
  ShowMessageFace("jack_fc1",1,0,2,79)
  ShowMessage("\\n<Pumpkin>I practice a lot.")
  ShowMessageFace("",0,0,2,80)
  ShowMessage("Pumpkin began to juggle.")
  ShowMessage("...but no one was watching.")
  EndEventProcessing()
  0()
 EndIf()
 0()
EndIf()
If(1,100,0,89,0)
 If(1,11,0,1,0)
  ShowMessageFace("ropa_fc1",0,0,2,81)
  ShowMessage("\\n<Cindy>Hey! What the?!")
  ShowMessageFace("",0,0,2,82)
  ShowMessage("Wow, looks like Cindy got tangled in her own tentacles!")
  EndEventProcessing()
  0()
 EndIf()
 If(1,11,0,2,0)
  ShowMessageFace("ropa_fc1",0,0,2,83)
  ShowMessage("\\n<Cindy>My tentacles are very dexterous. Hora, hora.")
  ShowMessageFace("",0,0,2,84)
  ShowMessage("Cindy began to juggle.")
  ShowMessage("...but no one was watching.")
  EndEventProcessing()
  0()
 EndIf()
 If(1,11,0,3,0)
  ShowMessageFace("ropa_fc1",0,0,2,85)
  ShowMessage("\\n<Cindy>Ah! Tripped by my own tentacles?!")
  355("interrupt_skill(3293)")
  EndEventProcessing()
  0()
 EndIf()
 If(1,11,0,4,0)
  ShowMessageFace("ropa_fc1",0,0,2,86)
  ShowMessage("\\n<Cindy>Break time.")
  355("interrupt_skill(3295)")
  EndEventProcessing()
  0()
 EndIf()
 If(1,11,0,5,0)
  ShowMessageFace("ropa_fc1",0,0,2,87)
  ShowMessage("\\n<Cindy>Ouch! What was that?")
  250(bytes(0x04,0x08,0x6f,0x3a,0x0c,0x52,0x50,0x47,0x3a,0x3a,0x53,0x45,0x08,0x3a,0x0a,0x40,0x6e,0x61,0x6d,0x65,0x49,0x22,0x0a,0x49,0x74,0x65,0x6d,0x31,0x06,0x3a,0x06,0x45,0x54,0x3a,0x0b,0x40,0x70,0x69,0x74,0x63,0x68,0x69,0x69,0x3a,0x0c,0x40,0x76,0x6f,0x6c,0x75,0x6d,0x65,0x69,0x55))
  ChangeInventory_Item(447,0,0,1)
  ShowMessageFace("",0,0,2,88)
  ShowMessage("Cindy was hit by a falling pine cone!")
  ShowMessage("You obtain a \\ii[447]!")
  EndEventProcessing()
  0()
 EndIf()
 0()
EndIf()
If(1,100,0,90,0)
 If(1,11,0,1,0)
  ShowMessageFace("meda_fc1",0,0,2,89)
  ShowMessage("\\n<Meru Meru>*Rustle Rustle* *Creep Creep Creep*")
  ShowMessageFace("",0,0,2,90)
  ShowMessage("Meru Meru is rustling in a corner.")
  EndEventProcessing()
  0()
 EndIf()
 If(1,11,0,2,0)
  ShowMessageFace("meda_fc1",0,0,2,91)
  ShowMessage("\\n<Meru Meru>*Creep* *Creep* *Creep*")
  ShowMessageFace("",0,0,2,92)
  ShowMessage("Meru Meru has stolen some food.")
  EndEventProcessing()
  0()
 EndIf()
 If(1,11,0,3,0)
  ShowMessageFace("meda_fc1",0,0,2,93)
  ShowMessage("\\n<Meru Meru>*Creep Creep*\n............?!")
  ShowMessageFace("meda_fc1",0,0,2,94)
  ShowMessage("\\n<Meru Meru>Hyaaaaa!!!!")
  250(bytes(0x04,0x08,0x6f,0x3a,0x0c,0x52,0x50,0x47,0x3a,0x3a,0x53,0x45,0x08,0x3a,0x0a,0x40,0x6e,0x61,0x6d,0x65,0x49,0x22,0x0a,0x49,0x74,0x65,0x6d,0x31,0x06,0x3a,0x06,0x45,0x54,0x3a,0x0b,0x40,0x70,0x69,0x74,0x63,0x68,0x69,0x69,0x3a,0x0c,0x40,0x76,0x6f,0x6c,0x75,0x6d,0x65,0x69,0x55))
  ChangeInventory_Item(444,0,0,1)
  ShowMessageFace("",0,0,2,95)
  ShowMessage("Meru Meru has discovered a skeleton.")
  ShowMessage("You obtain a \\ii[444]!")
  EndEventProcessing()
  0()
 EndIf()
 If(1,11,0,4,0)
  ShowMessageFace("meda_fc1",0,0,2,96)
  ShowMessage("\\n<Meru Meru>La la.")
  ShowMessageFace("",0,0,2,97)
  ShowMessage("Meru Meru began a fun dance.")
  ShowMessage("...but nothing happened.")
  EndEventProcessing()
  0()
 EndIf()
 If(1,11,0,5,0)
  ShowMessageFace("meda_fc1",0,0,2,98)
  ShowMessage("\\n<Meru Meru>Bright.")
  ShowMessageFace("",0,0,2,99)
  ShowMessage("Meru Meru has spaced out.")
  EndEventProcessing()
  0()
 EndIf()
 0()
EndIf()
0()
